%YAML 1.1
%TAG !u! tag:unity3d.com,2011:
--- !u!74 &7400000
AnimationClip:
  m_ObjectHideFlags: 0
  m_CorrespondingSourceObject: {fileID: 0}
  m_PrefabInstance: {fileID: 0}
  m_PrefabAsset: {fileID: 0}
  m_Name: New Animation
  serializedVersion: 6
  m_Legacy: 0
  m_Compressed: 0
  m_UseHighQualityCurve: 1
  m_RotationCurves: []
  m_CompressedRotationCurves: []
  m_EulerCurves: []
  m_PositionCurves: []
  m_ScaleCurves: []
  m_FloatCurves: []
  m_PPtrCurves:
  - curve:
    - time: 0
      value: {fileID: 21300000, guid: 9df8e0d160bf4c842ae267368105d2e8, type: 3}
    - time: 0.033333335
      value: {fileID: 21300000, guid: c8492c654bf90534c921763969734c09, type: 3}
    - time: 0.06666667
      value: {fileID: 21300000, guid: 60f7f4e6184229f4694ae33a49691261, type: 3}
    - time: 0.1
      value: {fileID: 21300000, guid: d1db7753d43b35c4f913affa6c4bd6a4, type: 3}
    - time: 0.13333334
      value: {fileID: 21300000, guid: 3c006fec5e19fda419ac6faa9fb39bd6, type: 3}
    - time: 0.16666667
      value: {fileID: 21300000, guid: 9ba824c1f9124374b8ba1b2cc262dad6, type: 3}
    - time: 0.2
      value: {fileID: 21300000, guid: 437c19b74cc4ef64cbe69ac9aaf672a7, type: 3}
    - time: 0.23333333
      value: {fileID: 21300000, guid: 689d05de9615f3b409d527460e3aa1b9, type: 3}
    - time: 0.26666668
      value: {fileID: 21300000, guid: 7015c973ab5b4904eac229feed69ab77, type: 3}
    - time: 0.3
      value: {fileID: 21300000, guid: 2a9cb3b49cea11d4b8d111b395b59ac5, type: 3}
    - time: 0.33333334
      value: {fileID: 21300000, guid: 8136d6e4ed04a6b41aa34e29b38c2395, type: 3}
    - time: 0.36666667
      value: {fileID: 21300000, guid: a817f5521de72fa48a562287ad81ade4, type: 3}
    - time: 0.4
      value: {fileID: 21300000, guid: db674d1c07bad0545960a4cdd3c29732, type: 3}
    - time: 0.43333334
      value: {fileID: 21300000, guid: fd18a0a2f3e0acf40bf2c677e808898c, type: 3}
    - time: 0.46666667
      value: {fileID: 21300000, guid: 546dab71f3a285d439be1efab3c6050c, type: 3}
    - time: 0.5
      value: {fileID: 21300000, guid: bb7cbf6f094f2c84bb6ac412e521d78c, type: 3}
    - time: 0.53333336
      value: {fileID: 21300000, guid: cfe50c0dfe52fee4fa2e92299fc1d754, type: 3}
    - time: 0.56666666
      value: {fileID: 21300000, guid: 5f816d256194812459b8bbbcc1f06d34, type: 3}
    - time: 0.6
      value: {fileID: 21300000, guid: 99187f5a33820f549ab6a7abe884ef2a, type: 3}
    - time: 0.6333333
      value: {fileID: 21300000, guid: 0d3521a4ea9c95344a79329352e0d9a6, type: 3}
    - time: 0.6666667
      value: {fileID: 21300000, guid: 25cf6b011e927a24c9bb01fdf1830f81, type: 3}
    - time: 0.7
      value: {fileID: 21300000, guid: e8bb5f953acc30e4caf065664c673b9c, type: 3}
    - time: 0.73333335
      value: {fileID: 21300000, guid: 852f514da73edb9469126af2c5612688, type: 3}
    - time: 0.76666665
      value: {fileID: 21300000, guid: a76e411dca8c05241b311e172cc65ef7, type: 3}
    - time: 0.8
      value: {fileID: 21300000, guid: c101cf237fff91f4b8952af91e1898f6, type: 3}
    - time: 0.8333333
      value: {fileID: 21300000, guid: e148dc6db3d42db4f9aafbd6dbd7bc30, type: 3}
    - time: 0.8666667
      value: {fileID: 21300000, guid: c9a478151a38b0541942863f3353a996, type: 3}
    - time: 0.9
      value: {fileID: 21300000, guid: a9cfacab7741d9e4a9e248f03a8927d4, type: 3}
    - time: 0.93333334
      value: {fileID: 21300000, guid: e16efaabbd682dc45861bde9f83782c6, type: 3}
    - time: 0.96666664
      value: {fileID: 21300000, guid: bab0f21231571c3439c477aa0372dc93, type: 3}
    - time: 1
      value: {fileID: 21300000, guid: 71d1eb949a8b48f4daed27578234833c, type: 3}
    - time: 1.0333333
      value: {fileID: 21300000, guid: 1ed90fd6f5af4224dbe6360a4ca6e744, type: 3}
    - time: 1.0666667
      value: {fileID: 21300000, guid: 4b755996c6f29e2408bdf5f8d090d425, type: 3}
    - time: 1.1
      value: {fileID: 21300000, guid: faf1a3786a283c147be4d30c5b5a84d7, type: 3}
    - time: 1.1333333
      value: {fileID: 21300000, guid: c37147fda9b5c9244baf3103383c342c, type: 3}
    - time: 1.1666666
      value: {fileID: 21300000, guid: 27bfe6a239fd2294385988f24ce296c3, type: 3}
    - time: 1.2
      value: {fileID: 21300000, guid: a5e4d2461456e9a48809d2281db6dce9, type: 3}
    - time: 1.2333333
      value: {fileID: 21300000, guid: 6b5e3cd3658c83545920e27f37b40914, type: 3}
    - time: 1.2666667
      value: {fileID: 21300000, guid: 34f8580ef38772841bebdf3cd72fc9a0, type: 3}
    - time: 1.3
      value: {fileID: 21300000, guid: d93cae4ce8c5da5498ffa3ad4af1f978, type: 3}
    - time: 1.3333334
      value: {fileID: 21300000, guid: 63cd1911a24ac6d44aa5d7d5b5090389, type: 3}
    - time: 1.3666667
      value: {fileID: 21300000, guid: 6a007e872efdd17478e89a14203cd066, type: 3}
    - time: 1.4
      value: {fileID: 21300000, guid: 7cd966405455c27489fbd4f6e770925f, type: 3}
    - time: 1.4333333
      value: {fileID: 21300000, guid: 7ca4e5a152202d8428c8fcd7c3a6b864, type: 3}
    - time: 1.4666667
      value: {fileID: 21300000, guid: 22f9f3a081f595240ba5a0b3a5536a88, type: 3}
    - time: 1.5
      value: {fileID: 21300000, guid: dd809984281573841aafc2b107fa867d, type: 3}
    - time: 1.5333333
      value: {fileID: 21300000, guid: fbce6f773facf2f41a17a18311ffec6f, type: 3}
    - time: 1.5666667
      value: {fileID: 21300000, guid: 8761dbc7e950c2447843428932d1c91f, type: 3}
    - time: 1.6
      value: {fileID: 21300000, guid: 5c0f5cc13556385469d9e22d0103bb29, type: 3}
    - time: 1.6333333
      value: {fileID: 21300000, guid: e990156c75a0f484bb88f3fd8d26b328, type: 3}
    - time: 1.6666666
      value: {fileID: 21300000, guid: 10a8d5bc8ee4d3649b491b381dc77fb0, type: 3}
    - time: 1.7
      value: {fileID: 21300000, guid: 32ad5532d992753489d5be0a3d9697fd, type: 3}
    - time: 1.7333333
      value: {fileID: 21300000, guid: 243099be266a84646acdc8fd2d3f77d7, type: 3}
    - time: 1.7666667
      value: {fileID: 21300000, guid: 01c953bc04fb46b41a587cdb93779b9c, type: 3}
    - time: 1.8
      value: {fileID: 21300000, guid: 23608998e620a794b84d95a7947f76ed, type: 3}
    - time: 1.8333334
      value: {fileID: 21300000, guid: 933973a59129b864a8b36b2615292374, type: 3}
    - time: 1.8666667
      value: {fileID: 21300000, guid: 6dd8ff517ede68a4ab6c0815f4de403a, type: 3}
    - time: 1.9
      value: {fileID: 21300000, guid: 2448dfcb24a76a84b9ea68c95c8cc6ff, type: 3}
    - time: 1.9333333
      value: {fileID: 21300000, guid: d997bab0b554a914bb718385c5b71dd7, type: 3}
    - time: 1.9666667
      value: {fileID: 21300000, guid: 560f5aa6f9a49d741ba393fcebdf8e39, type: 3}
    - time: 2
      value: {fileID: 21300000, guid: b9fa82f69372227499be28d20bc3f566, type: 3}
    - time: 2.0333333
      value: {fileID: 21300000, guid: a69313c2c1f494b4192eedfa2e3e4136, type: 3}
    - time: 2.0666666
      value: {fileID: 21300000, guid: a94c23eea97bba14280c4d43d4056e51, type: 3}
    - time: 2.1
      value: {fileID: 21300000, guid: c7251b1c018604644bf89cef1d98ec35, type: 3}
    - time: 2.1333334
      value: {fileID: 21300000, guid: 2158e9dd6c3234e41bb7d28409545547, type: 3}
    - time: 2.1666667
      value: {fileID: 21300000, guid: 53b94b8fa483d154996dfb6cd1eebee2, type: 3}
    - time: 2.2
      value: {fileID: 21300000, guid: 890ac5f152728d84f953d18a1011105a, type: 3}
    - time: 2.2333333
      value: {fileID: 21300000, guid: cfb2b3e1f2e484e4fa792d9404476556, type: 3}
    - time: 2.2666667
      value: {fileID: 21300000, guid: 4028b39c7b2ce1a4b9048ef23c0aa714, type: 3}
    - time: 2.3
      value: {fileID: 21300000, guid: 0d7b603422909bb4ab4706219311b558, type: 3}
    attribute: m_Sprite
    path: 
    classID: 212
    script: {fileID: 0}
  m_SampleRate: 30
  m_WrapMode: 0
  m_Bounds:
    m_Center: {x: 0, y: 0, z: 0}
    m_Extent: {x: 0, y: 0, z: 0}
  m_ClipBindingConstant:
    genericBindings:
    - serializedVersion: 2
      path: 0
      attribute: 0
      script: {fileID: 0}
      typeID: 212
      customType: 23
      isPPtrCurve: 1
    pptrCurveMapping:
    - {fileID: 21300000, guid: 9df8e0d160bf4c842ae267368105d2e8, type: 3}
    - {fileID: 21300000, guid: c8492c654bf90534c921763969734c09, type: 3}
    - {fileID: 21300000, guid: 60f7f4e6184229f4694ae33a49691261, type: 3}
    - {fileID: 21300000, guid: d1db7753d43b35c4f913affa6c4bd6a4, type: 3}
    - {fileID: 21300000, guid: 3c006fec5e19fda419ac6faa9fb39bd6, type: 3}
    - {fileID: 21300000, guid: 9ba824c1f9124374b8ba1b2cc262dad6, type: 3}
    - {fileID: 21300000, guid: 437c19b74cc4ef64cbe69ac9aaf672a7, type: 3}
    - {fileID: 21300000, guid: 689d05de9615f3b409d527460e3aa1b9, type: 3}
    - {fileID: 21300000, guid: 7015c973ab5b4904eac229feed69ab77, type: 3}
    - {fileID: 21300000, guid: 2a9cb3b49cea11d4b8d111b395b59ac5, type: 3}
    - {fileID: 21300000, guid: 8136d6e4ed04a6b41aa34e29b38c2395, type: 3}
    - {fileID: 21300000, guid: a817f5521de72fa48a562287ad81ade4, type: 3}
    - {fileID: 21300000, guid: db674d1c07bad0545960a4cdd3c29732, type: 3}
    - {fileID: 21300000, guid: fd18a0a2f3e0acf40bf2c677e808898c, type: 3}
    - {fileID: 21300000, guid: 546dab71f3a285d439be1efab3c6050c, type: 3}
    - {fileID: 21300000, guid: bb7cbf6f094f2c84bb6ac412e521d78c, type: 3}
    - {fileID: 21300000, guid: cfe50c0dfe52fee4fa2e92299fc1d754, type: 3}
    - {fileID: 21300000, guid: 5f816d256194812459b8bbbcc1f06d34, type: 3}
    - {fileID: 21300000, guid: 99187f5a33820f549ab6a7abe884ef2a, type: 3}
    - {fileID: 21300000, guid: 0d3521a4ea9c95344a79329352e0d9a6, type: 3}
    - {fileID: 21300000, guid: 25cf6b011e927a24c9bb01fdf1830f81, type: 3}
    - {fileID: 21300000, guid: e8bb5f953acc30e4caf065664c673b9c, type: 3}
    - {fileID: 21300000, guid: 852f514da73edb9469126af2c5612688, type: 3}
    - {fileID: 21300000, guid: a76e411dca8c05241b311e172cc65ef7, type: 3}
    - {fileID: 21300000, guid: c101cf237fff91f4b8952af91e1898f6, type: 3}
    - {fileID: 21300000, guid: e148dc6db3d42db4f9aafbd6dbd7bc30, type: 3}
    - {fileID: 21300000, guid: c9a478151a38b0541942863f3353a996, type: 3}
    - {fileID: 21300000, guid: a9cfacab7741d9e4a9e248f03a8927d4, type: 3}
    - {fileID: 21300000, guid: e16efaabbd682dc45861bde9f83782c6, type: 3}
    - {fileID: 21300000, guid: bab0f21231571c3439c477aa0372dc93, type: 3}
    - {fileID: 21300000, guid: 71d1eb949a8b48f4daed27578234833c, type: 3}
    - {fileID: 21300000, guid: 1ed90fd6f5af4224dbe6360a4ca6e744, type: 3}
    - {fileID: 21300000, guid: 4b755996c6f29e2408bdf5f8d090d425, type: 3}
    - {fileID: 21300000, guid: faf1a3786a283c147be4d30c5b5a84d7, type: 3}
    - {fileID: 21300000, guid: c37147fda9b5c9244baf3103383c342c, type: 3}
    - {fileID: 21300000, guid: 27bfe6a239fd2294385988f24ce296c3, type: 3}
    - {fileID: 21300000, guid: a5e4d2461456e9a48809d2281db6dce9, type: 3}
    - {fileID: 21300000, guid: 6b5e3cd3658c83545920e27f37b40914, type: 3}
    - {fileID: 21300000, guid: 34f8580ef38772841bebdf3cd72fc9a0, type: 3}
    - {fileID: 21300000, guid: d93cae4ce8c5da5498ffa3ad4af1f978, type: 3}
    - {fileID: 21300000, guid: 63cd1911a24ac6d44aa5d7d5b5090389, type: 3}
    - {fileID: 21300000, guid: 6a007e872efdd17478e89a14203cd066, type: 3}
    - {fileID: 21300000, guid: 7cd966405455c27489fbd4f6e770925f, type: 3}
    - {fileID: 21300000, guid: 7ca4e5a152202d8428c8fcd7c3a6b864, type: 3}
    - {fileID: 21300000, guid: 22f9f3a081f595240ba5a0b3a5536a88, type: 3}
    - {fileID: 21300000, guid: dd809984281573841aafc2b107fa867d, type: 3}
    - {fileID: 21300000, guid: fbce6f773facf2f41a17a18311ffec6f, type: 3}
    - {fileID: 21300000, guid: 8761dbc7e950c2447843428932d1c91f, type: 3}
    - {fileID: 21300000, guid: 5c0f5cc13556385469d9e22d0103bb29, type: 3}
    - {fileID: 21300000, guid: e990156c75a0f484bb88f3fd8d26b328, type: 3}
    - {fileID: 21300000, guid: 10a8d5bc8ee4d3649b491b381dc77fb0, type: 3}
    - {fileID: 21300000, guid: 32ad5532d992753489d5be0a3d9697fd, type: 3}
    - {fileID: 21300000, guid: 243099be266a84646acdc8fd2d3f77d7, type: 3}
    - {fileID: 21300000, guid: 01c953bc04fb46b41a587cdb93779b9c, type: 3}
    - {fileID: 21300000, guid: 23608998e620a794b84d95a7947f76ed, type: 3}
    - {fileID: 21300000, guid: 933973a59129b864a8b36b2615292374, type: 3}
    - {fileID: 21300000, guid: 6dd8ff517ede68a4ab6c0815f4de403a, type: 3}
    - {fileID: 21300000, guid: 2448dfcb24a76a84b9ea68c95c8cc6ff, type: 3}
    - {fileID: 21300000, guid: d997bab0b554a914bb718385c5b71dd7, type: 3}
    - {fileID: 21300000, guid: 560f5aa6f9a49d741ba393fcebdf8e39, type: 3}
    - {fileID: 21300000, guid: b9fa82f69372227499be28d20bc3f566, type: 3}
    - {fileID: 21300000, guid: a69313c2c1f494b4192eedfa2e3e4136, type: 3}
    - {fileID: 21300000, guid: a94c23eea97bba14280c4d43d4056e51, type: 3}
    - {fileID: 21300000, guid: c7251b1c018604644bf89cef1d98ec35, type: 3}
    - {fileID: 21300000, guid: 2158e9dd6c3234e41bb7d28409545547, type: 3}
    - {fileID: 21300000, guid: 53b94b8fa483d154996dfb6cd1eebee2, type: 3}
    - {fileID: 21300000, guid: 890ac5f152728d84f953d18a1011105a, type: 3}
    - {fileID: 21300000, guid: cfb2b3e1f2e484e4fa792d9404476556, type: 3}
    - {fileID: 21300000, guid: 4028b39c7b2ce1a4b9048ef23c0aa714, type: 3}
    - {fileID: 21300000, guid: 0d7b603422909bb4ab4706219311b558, type: 3}
  m_AnimationClipSettings:
    serializedVersion: 2
    m_AdditiveReferencePoseClip: {fileID: 0}
    m_AdditiveReferencePoseTime: 0
    m_StartTime: 0
    m_StopTime: 2.3333333
    m_OrientationOffsetY: 0
    m_Level: 0
    m_CycleOffset: 0
    m_HasAdditiveReferencePose: 0
    m_LoopTime: 1
    m_LoopBlend: 0
    m_LoopBlendOrientation: 0
    m_LoopBlendPositionY: 0
    m_LoopBlendPositionXZ: 0
    m_KeepOriginalOrientation: 0
    m_KeepOriginalPositionY: 1
    m_KeepOriginalPositionXZ: 0
    m_HeightFromFeet: 0
    m_Mirror: 0
  m_EditorCurves: []
  m_EulerEditorCurves: []
  m_HasGenericRootTransform: 0
  m_HasMotionFloatCurves: 0
  m_Events: []
