%YAML 1.1
%TAG !u! tag:unity3d.com,2011:
--- !u!74 &7400000
AnimationClip:
  m_ObjectHideFlags: 0
  m_CorrespondingSourceObject: {fileID: 0}
  m_PrefabInstance: {fileID: 0}
  m_PrefabAsset: {fileID: 0}
  m_Name: char_intro_03
  serializedVersion: 6
  m_Legacy: 0
  m_Compressed: 0
  m_UseHighQualityCurve: 1
  m_RotationCurves: []
  m_CompressedRotationCurves: []
  m_EulerCurves: []
  m_PositionCurves: []
  m_ScaleCurves: []
  m_FloatCurves: []
  m_PPtrCurves:
  - curve:
    - time: 0
      value: {fileID: 2800000, guid: c0fde4a3a82b4784e8cb835d181fd4ff, type: 3}
    - time: 0.033333335
      value: {fileID: 2800000, guid: 46e3cde1650c2c947b4a59b3f67a7d3d, type: 3}
    - time: 0.06666667
      value: {fileID: 2800000, guid: b5e6666735e47c746807dd364a2286f3, type: 3}
    - time: 0.1
      value: {fileID: 2800000, guid: a9a294715966c194c874214689581c3f, type: 3}
    - time: 0.13333334
      value: {fileID: 2800000, guid: c4e9d19aa0784c749aaf7eeac269f365, type: 3}
    - time: 0.16666667
      value: {fileID: 2800000, guid: 0989cbc85a8559442a2c0527d23a7399, type: 3}
    - time: 0.2
      value: {fileID: 2800000, guid: 3a40aa94e51faf1418bab152d03c1c72, type: 3}
    - time: 0.23333333
      value: {fileID: 2800000, guid: dcc1bd5797950b8448743e04f822fbed, type: 3}
    - time: 0.26666668
      value: {fileID: 2800000, guid: 095edb879403938449292386f8b15bb8, type: 3}
    - time: 0.3
      value: {fileID: 2800000, guid: 0974cc632d8d9714e8d15530341000b5, type: 3}
    - time: 0.33333334
      value: {fileID: 2800000, guid: 1b14c3aea0e820f439e1d6f194caf630, type: 3}
    - time: 0.36666667
      value: {fileID: 2800000, guid: 82f8268534d207d4db83bf98cdd31aba, type: 3}
    - time: 0.4
      value: {fileID: 2800000, guid: 745a24d4383408b4287011da2fec43d2, type: 3}
    - time: 0.43333334
      value: {fileID: 2800000, guid: 8317603e5edfa2143971fe7c33fdbaed, type: 3}
    - time: 0.46666667
      value: {fileID: 2800000, guid: 99685fe35b147504d9f1e16204b1b087, type: 3}
    - time: 0.5
      value: {fileID: 2800000, guid: b9c59c0ff016fc34fa934cda5e65223b, type: 3}
    - time: 0.53333336
      value: {fileID: 2800000, guid: cfa7753acc3c1524ea974b3cf65b2a72, type: 3}
    - time: 0.56666666
      value: {fileID: 2800000, guid: 5910704105122d7428f9f3b438725ded, type: 3}
    - time: 0.6
      value: {fileID: 2800000, guid: eddc469faa8b7ae428582c7c7377fbcd, type: 3}
    - time: 0.6333333
      value: {fileID: 2800000, guid: b209fc53921af0e49b77d009658f4e98, type: 3}
    - time: 0.6666667
      value: {fileID: 2800000, guid: aed561733499e474bb30861d26b859bb, type: 3}
    - time: 0.7
      value: {fileID: 2800000, guid: 6aa136168494f2d439d3a22b50e123b4, type: 3}
    - time: 0.73333335
      value: {fileID: 2800000, guid: 57a2b60cb9ee393499740d0a97db6010, type: 3}
    - time: 0.76666665
      value: {fileID: 2800000, guid: 302029f5306f15843baf5cba9514e384, type: 3}
    - time: 0.8
      value: {fileID: 2800000, guid: a06f9007575f84f44b1e379b5ed71fd6, type: 3}
    - time: 0.8333333
      value: {fileID: 2800000, guid: 2b7a66743c3050949a741683e92f95f1, type: 3}
    - time: 0.8666667
      value: {fileID: 2800000, guid: aa26bf243e652274daf100c261ea80d6, type: 3}
    - time: 0.9
      value: {fileID: 2800000, guid: b794425caed16e54eb0e1c2d4b7c5839, type: 3}
    - time: 0.93333334
      value: {fileID: 2800000, guid: 2eaea73c6e42a674fa09a735cd12dea9, type: 3}
    - time: 0.96666664
      value: {fileID: 2800000, guid: a29063c03fdfc90418af62309f9f9583, type: 3}
    - time: 1
      value: {fileID: 2800000, guid: 497b44417b6bdc943800d28b09bed833, type: 3}
    - time: 1.0333333
      value: {fileID: 2800000, guid: 9c76be9214c85a24da942aa475fd0ef3, type: 3}
    - time: 1.0666667
      value: {fileID: 2800000, guid: 3e7127e8eed44c447b30098c437f506b, type: 3}
    - time: 1.1
      value: {fileID: 2800000, guid: c4f24edd57cd8b046bccd413ab9350f4, type: 3}
    - time: 1.1333333
      value: {fileID: 2800000, guid: 5ed0896454b2d044b9aab750b1755ddd, type: 3}
    - time: 1.1666666
      value: {fileID: 2800000, guid: ffa96aa0dfe9f53408d7166a1968b747, type: 3}
    - time: 1.2
      value: {fileID: 2800000, guid: 7d6da10f106ec5e4a80d8a8e5fc515f8, type: 3}
    - time: 1.2333333
      value: {fileID: 2800000, guid: b5fb9588258e11541914f4a07001b6a0, type: 3}
    - time: 1.2666667
      value: {fileID: 2800000, guid: b7a176bfd3f7c734fbcb238093cf889b, type: 3}
    - time: 1.3
      value: {fileID: 2800000, guid: 315cf60204e1d2e46bf3c9dcce2392b4, type: 3}
    attribute: m_Texture
    path: 
    classID: 114
    script: {fileID: -98529514, guid: f70555f144d8491a825f0804e09c671c, type: 3}
  m_SampleRate: 30
  m_WrapMode: 0
  m_Bounds:
    m_Center: {x: 0, y: 0, z: 0}
    m_Extent: {x: 0, y: 0, z: 0}
  m_ClipBindingConstant:
    genericBindings:
    - serializedVersion: 2
      path: 0
      attribute: 395606183
      script: {fileID: -98529514, guid: f70555f144d8491a825f0804e09c671c, type: 3}
      typeID: 114
      customType: 0
      isPPtrCurve: 1
    pptrCurveMapping:
    - {fileID: 2800000, guid: c0fde4a3a82b4784e8cb835d181fd4ff, type: 3}
    - {fileID: 2800000, guid: 46e3cde1650c2c947b4a59b3f67a7d3d, type: 3}
    - {fileID: 2800000, guid: b5e6666735e47c746807dd364a2286f3, type: 3}
    - {fileID: 2800000, guid: a9a294715966c194c874214689581c3f, type: 3}
    - {fileID: 2800000, guid: c4e9d19aa0784c749aaf7eeac269f365, type: 3}
    - {fileID: 2800000, guid: 0989cbc85a8559442a2c0527d23a7399, type: 3}
    - {fileID: 2800000, guid: 3a40aa94e51faf1418bab152d03c1c72, type: 3}
    - {fileID: 2800000, guid: dcc1bd5797950b8448743e04f822fbed, type: 3}
    - {fileID: 2800000, guid: 095edb879403938449292386f8b15bb8, type: 3}
    - {fileID: 2800000, guid: 0974cc632d8d9714e8d15530341000b5, type: 3}
    - {fileID: 2800000, guid: 1b14c3aea0e820f439e1d6f194caf630, type: 3}
    - {fileID: 2800000, guid: 82f8268534d207d4db83bf98cdd31aba, type: 3}
    - {fileID: 2800000, guid: 745a24d4383408b4287011da2fec43d2, type: 3}
    - {fileID: 2800000, guid: 8317603e5edfa2143971fe7c33fdbaed, type: 3}
    - {fileID: 2800000, guid: 99685fe35b147504d9f1e16204b1b087, type: 3}
    - {fileID: 2800000, guid: b9c59c0ff016fc34fa934cda5e65223b, type: 3}
    - {fileID: 2800000, guid: cfa7753acc3c1524ea974b3cf65b2a72, type: 3}
    - {fileID: 2800000, guid: 5910704105122d7428f9f3b438725ded, type: 3}
    - {fileID: 2800000, guid: eddc469faa8b7ae428582c7c7377fbcd, type: 3}
    - {fileID: 2800000, guid: b209fc53921af0e49b77d009658f4e98, type: 3}
    - {fileID: 2800000, guid: aed561733499e474bb30861d26b859bb, type: 3}
    - {fileID: 2800000, guid: 6aa136168494f2d439d3a22b50e123b4, type: 3}
    - {fileID: 2800000, guid: 57a2b60cb9ee393499740d0a97db6010, type: 3}
    - {fileID: 2800000, guid: 302029f5306f15843baf5cba9514e384, type: 3}
    - {fileID: 2800000, guid: a06f9007575f84f44b1e379b5ed71fd6, type: 3}
    - {fileID: 2800000, guid: 2b7a66743c3050949a741683e92f95f1, type: 3}
    - {fileID: 2800000, guid: aa26bf243e652274daf100c261ea80d6, type: 3}
    - {fileID: 2800000, guid: b794425caed16e54eb0e1c2d4b7c5839, type: 3}
    - {fileID: 2800000, guid: 2eaea73c6e42a674fa09a735cd12dea9, type: 3}
    - {fileID: 2800000, guid: a29063c03fdfc90418af62309f9f9583, type: 3}
    - {fileID: 2800000, guid: 497b44417b6bdc943800d28b09bed833, type: 3}
    - {fileID: 2800000, guid: 9c76be9214c85a24da942aa475fd0ef3, type: 3}
    - {fileID: 2800000, guid: 3e7127e8eed44c447b30098c437f506b, type: 3}
    - {fileID: 2800000, guid: c4f24edd57cd8b046bccd413ab9350f4, type: 3}
    - {fileID: 2800000, guid: 5ed0896454b2d044b9aab750b1755ddd, type: 3}
    - {fileID: 2800000, guid: ffa96aa0dfe9f53408d7166a1968b747, type: 3}
    - {fileID: 2800000, guid: 7d6da10f106ec5e4a80d8a8e5fc515f8, type: 3}
    - {fileID: 2800000, guid: b5fb9588258e11541914f4a07001b6a0, type: 3}
    - {fileID: 2800000, guid: b7a176bfd3f7c734fbcb238093cf889b, type: 3}
    - {fileID: 2800000, guid: 315cf60204e1d2e46bf3c9dcce2392b4, type: 3}
  m_AnimationClipSettings:
    serializedVersion: 2
    m_AdditiveReferencePoseClip: {fileID: 0}
    m_AdditiveReferencePoseTime: 0
    m_StartTime: 0
    m_StopTime: 1.3333333
    m_OrientationOffsetY: 0
    m_Level: 0
    m_CycleOffset: 0
    m_HasAdditiveReferencePose: 0
    m_LoopTime: 1
    m_LoopBlend: 0
    m_LoopBlendOrientation: 0
    m_LoopBlendPositionY: 0
    m_LoopBlendPositionXZ: 0
    m_KeepOriginalOrientation: 0
    m_KeepOriginalPositionY: 1
    m_KeepOriginalPositionXZ: 0
    m_HeightFromFeet: 0
    m_Mirror: 0
  m_EditorCurves: []
  m_EulerEditorCurves: []
  m_HasGenericRootTransform: 0
  m_HasMotionFloatCurves: 0
  m_Events: []
