%YAML 1.1
%TAG !u! tag:unity3d.com,2011:
--- !u!74 &7400000
AnimationClip:
  m_ObjectHideFlags: 0
  m_CorrespondingSourceObject: {fileID: 0}
  m_PrefabInstance: {fileID: 0}
  m_PrefabAsset: {fileID: 0}
  m_Name: New Animation
  serializedVersion: 6
  m_Legacy: 0
  m_Compressed: 0
  m_UseHighQualityCurve: 1
  m_RotationCurves: []
  m_CompressedRotationCurves: []
  m_EulerCurves: []
  m_PositionCurves: []
  m_ScaleCurves: []
  m_FloatCurves: []
  m_PPtrCurves:
  - curve:
    - time: 0
      value: {fileID: 21300000, guid: 86ee0030c2549834b9c4484847a97a11, type: 3}
    - time: 0.033333335
      value: {fileID: 21300000, guid: d418c5aae8c47b84285120a19649babb, type: 3}
    - time: 0.06666667
      value: {fileID: 21300000, guid: bf7044a949e9ff544aca6475612d7506, type: 3}
    - time: 0.1
      value: {fileID: 21300000, guid: 11b3907a0918372408f545f98f4074cf, type: 3}
    - time: 0.13333334
      value: {fileID: 21300000, guid: f68319427fcbcb3478e9c22ee8d0d038, type: 3}
    - time: 0.16666667
      value: {fileID: 21300000, guid: 85651e265802c3c4999c9d8acbd89610, type: 3}
    - time: 0.2
      value: {fileID: 21300000, guid: c40742a37471c3948b8914bbb0c005c9, type: 3}
    - time: 0.23333333
      value: {fileID: 21300000, guid: d94aef62859b71a459e6ed3ae3692b32, type: 3}
    - time: 0.26666668
      value: {fileID: 21300000, guid: 0e566078a8ff90e4ab0445c0cab94e24, type: 3}
    - time: 0.3
      value: {fileID: 21300000, guid: 7a9fe17c48ed16e4dbdbb492003e6561, type: 3}
    - time: 0.33333334
      value: {fileID: 21300000, guid: 1d27ef73ddb2ef44caa54ecfeeefe559, type: 3}
    - time: 0.36666667
      value: {fileID: 21300000, guid: 1d96885534e1f044d8e2f1c05ba3d2e2, type: 3}
    - time: 0.4
      value: {fileID: 21300000, guid: cf9da4443561e8d4f98eaf1c3acdfefa, type: 3}
    - time: 0.43333334
      value: {fileID: 21300000, guid: b48dd5acf5651534b977e6c0fee56d5d, type: 3}
    - time: 0.46666667
      value: {fileID: 21300000, guid: d3379d6ff11c26c48a0c0516e7e06b64, type: 3}
    - time: 0.5
      value: {fileID: 21300000, guid: 2d0e657fc77561848890158eb0ee39b3, type: 3}
    - time: 0.53333336
      value: {fileID: 21300000, guid: 400708c5b308abd4086142141981c077, type: 3}
    - time: 0.56666666
      value: {fileID: 21300000, guid: 1785cd6795b5d62428e137377dec1f8f, type: 3}
    - time: 0.6
      value: {fileID: 21300000, guid: 6131ab70eb1a7ce44b8ead2e2ddd8eab, type: 3}
    - time: 0.6333333
      value: {fileID: 21300000, guid: eb7748b979c42bc42a78e694090d8ff9, type: 3}
    - time: 0.6666667
      value: {fileID: 21300000, guid: 0cb10669734ac674cb9cb3827e6c177c, type: 3}
    - time: 0.7
      value: {fileID: 21300000, guid: faf0cc5ef1d5178489b5ef666b2d771f, type: 3}
    - time: 0.73333335
      value: {fileID: 21300000, guid: 78ef806edf3d57347b177f304b696021, type: 3}
    - time: 0.76666665
      value: {fileID: 21300000, guid: 1a14f25ebcb675648af07faa64970897, type: 3}
    - time: 0.8
      value: {fileID: 21300000, guid: 3402a9a286c74f4408c77db8ca59d91c, type: 3}
    - time: 0.8333333
      value: {fileID: 21300000, guid: 476c97dbd82facf439f1bf70314c685a, type: 3}
    - time: 0.8666667
      value: {fileID: 21300000, guid: 3d4f20d73260c524fa7c5bde54b5b32a, type: 3}
    - time: 0.9
      value: {fileID: 21300000, guid: 698ef7709cf8b38468cf357c30f2fa9e, type: 3}
    - time: 0.93333334
      value: {fileID: 21300000, guid: be682657efda3624fb517c827ad0b70b, type: 3}
    - time: 0.96666664
      value: {fileID: 21300000, guid: d7a298bfb5376684e8bd77eff91ed78f, type: 3}
    - time: 1
      value: {fileID: 21300000, guid: 4eb577447b343114dba9da6c2cc6716b, type: 3}
    - time: 1.0333333
      value: {fileID: 21300000, guid: 2fceacf989a8a7a40a05de7d80dff9fe, type: 3}
    - time: 1.0666667
      value: {fileID: 21300000, guid: 3439d5e126044e94f9ad66048d6cf688, type: 3}
    - time: 1.1
      value: {fileID: 21300000, guid: a0ed361d1b39f6249bc9a2ce86c8057a, type: 3}
    - time: 1.1333333
      value: {fileID: 21300000, guid: 8f086f79cefae2847b201ea50b3bd4f2, type: 3}
    - time: 1.1666666
      value: {fileID: 21300000, guid: cd8e0025e5cd67948bff46d21a7f852f, type: 3}
    - time: 1.2
      value: {fileID: 21300000, guid: f605b1792d7d7cb42b9fe1a1d84ad582, type: 3}
    - time: 1.2333333
      value: {fileID: 21300000, guid: ed9babdde10c24047865178144a3632b, type: 3}
    - time: 1.2666667
      value: {fileID: 21300000, guid: 51538cc40b9f8e24b853b404e1df45fb, type: 3}
    - time: 1.3
      value: {fileID: 21300000, guid: 20caa39ec07069747985b2c6134517ce, type: 3}
    attribute: m_Sprite
    path: 
    classID: 212
    script: {fileID: 0}
  m_SampleRate: 30
  m_WrapMode: 0
  m_Bounds:
    m_Center: {x: 0, y: 0, z: 0}
    m_Extent: {x: 0, y: 0, z: 0}
  m_ClipBindingConstant:
    genericBindings:
    - serializedVersion: 2
      path: 0
      attribute: 0
      script: {fileID: 0}
      typeID: 212
      customType: 23
      isPPtrCurve: 1
    pptrCurveMapping:
    - {fileID: 21300000, guid: 86ee0030c2549834b9c4484847a97a11, type: 3}
    - {fileID: 21300000, guid: d418c5aae8c47b84285120a19649babb, type: 3}
    - {fileID: 21300000, guid: bf7044a949e9ff544aca6475612d7506, type: 3}
    - {fileID: 21300000, guid: 11b3907a0918372408f545f98f4074cf, type: 3}
    - {fileID: 21300000, guid: f68319427fcbcb3478e9c22ee8d0d038, type: 3}
    - {fileID: 21300000, guid: 85651e265802c3c4999c9d8acbd89610, type: 3}
    - {fileID: 21300000, guid: c40742a37471c3948b8914bbb0c005c9, type: 3}
    - {fileID: 21300000, guid: d94aef62859b71a459e6ed3ae3692b32, type: 3}
    - {fileID: 21300000, guid: 0e566078a8ff90e4ab0445c0cab94e24, type: 3}
    - {fileID: 21300000, guid: 7a9fe17c48ed16e4dbdbb492003e6561, type: 3}
    - {fileID: 21300000, guid: 1d27ef73ddb2ef44caa54ecfeeefe559, type: 3}
    - {fileID: 21300000, guid: 1d96885534e1f044d8e2f1c05ba3d2e2, type: 3}
    - {fileID: 21300000, guid: cf9da4443561e8d4f98eaf1c3acdfefa, type: 3}
    - {fileID: 21300000, guid: b48dd5acf5651534b977e6c0fee56d5d, type: 3}
    - {fileID: 21300000, guid: d3379d6ff11c26c48a0c0516e7e06b64, type: 3}
    - {fileID: 21300000, guid: 2d0e657fc77561848890158eb0ee39b3, type: 3}
    - {fileID: 21300000, guid: 400708c5b308abd4086142141981c077, type: 3}
    - {fileID: 21300000, guid: 1785cd6795b5d62428e137377dec1f8f, type: 3}
    - {fileID: 21300000, guid: 6131ab70eb1a7ce44b8ead2e2ddd8eab, type: 3}
    - {fileID: 21300000, guid: eb7748b979c42bc42a78e694090d8ff9, type: 3}
    - {fileID: 21300000, guid: 0cb10669734ac674cb9cb3827e6c177c, type: 3}
    - {fileID: 21300000, guid: faf0cc5ef1d5178489b5ef666b2d771f, type: 3}
    - {fileID: 21300000, guid: 78ef806edf3d57347b177f304b696021, type: 3}
    - {fileID: 21300000, guid: 1a14f25ebcb675648af07faa64970897, type: 3}
    - {fileID: 21300000, guid: 3402a9a286c74f4408c77db8ca59d91c, type: 3}
    - {fileID: 21300000, guid: 476c97dbd82facf439f1bf70314c685a, type: 3}
    - {fileID: 21300000, guid: 3d4f20d73260c524fa7c5bde54b5b32a, type: 3}
    - {fileID: 21300000, guid: 698ef7709cf8b38468cf357c30f2fa9e, type: 3}
    - {fileID: 21300000, guid: be682657efda3624fb517c827ad0b70b, type: 3}
    - {fileID: 21300000, guid: d7a298bfb5376684e8bd77eff91ed78f, type: 3}
    - {fileID: 21300000, guid: 4eb577447b343114dba9da6c2cc6716b, type: 3}
    - {fileID: 21300000, guid: 2fceacf989a8a7a40a05de7d80dff9fe, type: 3}
    - {fileID: 21300000, guid: 3439d5e126044e94f9ad66048d6cf688, type: 3}
    - {fileID: 21300000, guid: a0ed361d1b39f6249bc9a2ce86c8057a, type: 3}
    - {fileID: 21300000, guid: 8f086f79cefae2847b201ea50b3bd4f2, type: 3}
    - {fileID: 21300000, guid: cd8e0025e5cd67948bff46d21a7f852f, type: 3}
    - {fileID: 21300000, guid: f605b1792d7d7cb42b9fe1a1d84ad582, type: 3}
    - {fileID: 21300000, guid: ed9babdde10c24047865178144a3632b, type: 3}
    - {fileID: 21300000, guid: 51538cc40b9f8e24b853b404e1df45fb, type: 3}
    - {fileID: 21300000, guid: 20caa39ec07069747985b2c6134517ce, type: 3}
  m_AnimationClipSettings:
    serializedVersion: 2
    m_AdditiveReferencePoseClip: {fileID: 0}
    m_AdditiveReferencePoseTime: 0
    m_StartTime: 0
    m_StopTime: 1.3333333
    m_OrientationOffsetY: 0
    m_Level: 0
    m_CycleOffset: 0
    m_HasAdditiveReferencePose: 0
    m_LoopTime: 1
    m_LoopBlend: 0
    m_LoopBlendOrientation: 0
    m_LoopBlendPositionY: 0
    m_LoopBlendPositionXZ: 0
    m_KeepOriginalOrientation: 0
    m_KeepOriginalPositionY: 1
    m_KeepOriginalPositionXZ: 0
    m_HeightFromFeet: 0
    m_Mirror: 0
  m_EditorCurves: []
  m_EulerEditorCurves: []
  m_HasGenericRootTransform: 0
  m_HasMotionFloatCurves: 0
  m_Events: []
