%YAML 1.1
%TAG !u! tag:unity3d.com,2011:
--- !u!74 &7400000
AnimationClip:
  m_ObjectHideFlags: 0
  m_CorrespondingSourceObject: {fileID: 0}
  m_PrefabInstance: {fileID: 0}
  m_PrefabAsset: {fileID: 0}
  m_Name: char_intro_08
  serializedVersion: 6
  m_Legacy: 0
  m_Compressed: 0
  m_UseHighQualityCurve: 1
  m_RotationCurves: []
  m_CompressedRotationCurves: []
  m_EulerCurves: []
  m_PositionCurves: []
  m_ScaleCurves: []
  m_FloatCurves: []
  m_PPtrCurves:
  - curve:
    - time: 0
      value: {fileID: 2800000, guid: 704e6a2c2702f824497ce642c6797f96, type: 3}
    - time: 0.016666668
      value: {fileID: 2800000, guid: 4e8ee28221c217e4cba967a04d7a134f, type: 3}
    - time: 0.033333335
      value: {fileID: 2800000, guid: ca0ec79438706994fbb2e0e12885442b, type: 3}
    - time: 0.05
      value: {fileID: 2800000, guid: 42dbdc07c862b3541a6d6ec6c38911c5, type: 3}
    - time: 0.06666667
      value: {fileID: 2800000, guid: 8325cfe2d71654e41986c97e983031aa, type: 3}
    - time: 0.083333336
      value: {fileID: 2800000, guid: 87d5bf40af687534e83c8fbbbf8db7d6, type: 3}
    - time: 0.1
      value: {fileID: 2800000, guid: c24163ff8a224c64b99e280b3ce723b1, type: 3}
    - time: 0.11666667
      value: {fileID: 2800000, guid: e51e325cdf515fd4fb4f84f3a22fa5ff, type: 3}
    - time: 0.13333334
      value: {fileID: 2800000, guid: 803506ae94ed75a4a8c1dcb0cd153d56, type: 3}
    - time: 0.15
      value: {fileID: 2800000, guid: d80284ab0c1bf6d429c27fbc303ec43a, type: 3}
    - time: 0.16666667
      value: {fileID: 2800000, guid: 4992161a6f891d34d936833b49d17d04, type: 3}
    - time: 0.18333334
      value: {fileID: 2800000, guid: 58f2056eaa1c49c4eb70b4aa04bca92d, type: 3}
    - time: 0.2
      value: {fileID: 2800000, guid: e5c2bc3a32a8a4c47a0b95f40624fe0a, type: 3}
    - time: 0.21666667
      value: {fileID: 2800000, guid: 82acb604ac173d845a321315a93ae9be, type: 3}
    - time: 0.23333333
      value: {fileID: 2800000, guid: 10626bcba29754d428ddb329c438cfab, type: 3}
    - time: 0.25
      value: {fileID: 2800000, guid: affaded78addaa6479fbf8287cbf6daf, type: 3}
    - time: 0.26666668
      value: {fileID: 2800000, guid: 4df15c321d0c858498c0d5191176cc21, type: 3}
    - time: 0.28333333
      value: {fileID: 2800000, guid: 0a5ed58ac9bc2e94ca3f65c6ae278666, type: 3}
    - time: 0.3
      value: {fileID: 2800000, guid: ada8991aa9a928b40a0d95f40b4ddebd, type: 3}
    - time: 0.31666666
      value: {fileID: 2800000, guid: 1f65e98d8f240fe48a1860087781e260, type: 3}
    - time: 0.33333334
      value: {fileID: 2800000, guid: a835bb834ab459a4f8452885a8775810, type: 3}
    - time: 0.35
      value: {fileID: 2800000, guid: afc7c95934e74dc41b3a41b4acdff52c, type: 3}
    - time: 0.36666667
      value: {fileID: 2800000, guid: 35af3ea0a49905f41a6ff82beb7448af, type: 3}
    - time: 0.38333333
      value: {fileID: 2800000, guid: ced97f09c0491b74197475ccaf432751, type: 3}
    - time: 0.4
      value: {fileID: 2800000, guid: 192e2079b9d51f744830507ea07f80e7, type: 3}
    - time: 0.41666666
      value: {fileID: 2800000, guid: ef268cf14b24a104faa7a85b5ffd34dc, type: 3}
    - time: 0.43333334
      value: {fileID: 2800000, guid: daec541d263015548bcde9c4067dabea, type: 3}
    - time: 0.45
      value: {fileID: 2800000, guid: e8f123aaefb05df4ebd367b3e473cf25, type: 3}
    - time: 0.46666667
      value: {fileID: 2800000, guid: 07151519db027db46a816c8003d8478c, type: 3}
    - time: 0.48333332
      value: {fileID: 2800000, guid: 1a9ac5924d281c04992367e4d975b27a, type: 3}
    - time: 0.5
      value: {fileID: 2800000, guid: 66ac461bc3ad60e469d34fcb57f2e8d0, type: 3}
    - time: 0.51666665
      value: {fileID: 2800000, guid: e3b10186a8710f544820761dea567470, type: 3}
    - time: 0.53333336
      value: {fileID: 2800000, guid: 204ea3b7cb2afa6479228b06593edec0, type: 3}
    - time: 0.55
      value: {fileID: 2800000, guid: 6041244c960864c498c42df0115c52b6, type: 3}
    - time: 0.56666666
      value: {fileID: 2800000, guid: 51e3c37ca46302245aa671b669e87b1e, type: 3}
    - time: 0.5833333
      value: {fileID: 2800000, guid: c5718eba02c05a54fa45a3baf8f5296f, type: 3}
    - time: 0.6
      value: {fileID: 2800000, guid: 4a3db4d6fd7e39a4490d27c2e0d18d38, type: 3}
    - time: 0.6166667
      value: {fileID: 2800000, guid: 068c83c3df5bfeb41a7bd979faaefd57, type: 3}
    - time: 0.6333333
      value: {fileID: 2800000, guid: de03e7a359f1dd84387ef7111358d145, type: 3}
    - time: 0.65
      value: {fileID: 2800000, guid: c4ded7ddbb5ddc34ebc7e2dcf8bbd382, type: 3}
    attribute: m_Texture
    path: 
    classID: 114
    script: {fileID: -98529514, guid: f70555f144d8491a825f0804e09c671c, type: 3}
  m_SampleRate: 60
  m_WrapMode: 0
  m_Bounds:
    m_Center: {x: 0, y: 0, z: 0}
    m_Extent: {x: 0, y: 0, z: 0}
  m_ClipBindingConstant:
    genericBindings:
    - serializedVersion: 2
      path: 0
      attribute: 395606183
      script: {fileID: -98529514, guid: f70555f144d8491a825f0804e09c671c, type: 3}
      typeID: 114
      customType: 0
      isPPtrCurve: 1
    pptrCurveMapping:
    - {fileID: 2800000, guid: 704e6a2c2702f824497ce642c6797f96, type: 3}
    - {fileID: 2800000, guid: 4e8ee28221c217e4cba967a04d7a134f, type: 3}
    - {fileID: 2800000, guid: ca0ec79438706994fbb2e0e12885442b, type: 3}
    - {fileID: 2800000, guid: 42dbdc07c862b3541a6d6ec6c38911c5, type: 3}
    - {fileID: 2800000, guid: 8325cfe2d71654e41986c97e983031aa, type: 3}
    - {fileID: 2800000, guid: 87d5bf40af687534e83c8fbbbf8db7d6, type: 3}
    - {fileID: 2800000, guid: c24163ff8a224c64b99e280b3ce723b1, type: 3}
    - {fileID: 2800000, guid: e51e325cdf515fd4fb4f84f3a22fa5ff, type: 3}
    - {fileID: 2800000, guid: 803506ae94ed75a4a8c1dcb0cd153d56, type: 3}
    - {fileID: 2800000, guid: d80284ab0c1bf6d429c27fbc303ec43a, type: 3}
    - {fileID: 2800000, guid: 4992161a6f891d34d936833b49d17d04, type: 3}
    - {fileID: 2800000, guid: 58f2056eaa1c49c4eb70b4aa04bca92d, type: 3}
    - {fileID: 2800000, guid: e5c2bc3a32a8a4c47a0b95f40624fe0a, type: 3}
    - {fileID: 2800000, guid: 82acb604ac173d845a321315a93ae9be, type: 3}
    - {fileID: 2800000, guid: 10626bcba29754d428ddb329c438cfab, type: 3}
    - {fileID: 2800000, guid: affaded78addaa6479fbf8287cbf6daf, type: 3}
    - {fileID: 2800000, guid: 4df15c321d0c858498c0d5191176cc21, type: 3}
    - {fileID: 2800000, guid: 0a5ed58ac9bc2e94ca3f65c6ae278666, type: 3}
    - {fileID: 2800000, guid: ada8991aa9a928b40a0d95f40b4ddebd, type: 3}
    - {fileID: 2800000, guid: 1f65e98d8f240fe48a1860087781e260, type: 3}
    - {fileID: 2800000, guid: a835bb834ab459a4f8452885a8775810, type: 3}
    - {fileID: 2800000, guid: afc7c95934e74dc41b3a41b4acdff52c, type: 3}
    - {fileID: 2800000, guid: 35af3ea0a49905f41a6ff82beb7448af, type: 3}
    - {fileID: 2800000, guid: ced97f09c0491b74197475ccaf432751, type: 3}
    - {fileID: 2800000, guid: 192e2079b9d51f744830507ea07f80e7, type: 3}
    - {fileID: 2800000, guid: ef268cf14b24a104faa7a85b5ffd34dc, type: 3}
    - {fileID: 2800000, guid: daec541d263015548bcde9c4067dabea, type: 3}
    - {fileID: 2800000, guid: e8f123aaefb05df4ebd367b3e473cf25, type: 3}
    - {fileID: 2800000, guid: 07151519db027db46a816c8003d8478c, type: 3}
    - {fileID: 2800000, guid: 1a9ac5924d281c04992367e4d975b27a, type: 3}
    - {fileID: 2800000, guid: 66ac461bc3ad60e469d34fcb57f2e8d0, type: 3}
    - {fileID: 2800000, guid: e3b10186a8710f544820761dea567470, type: 3}
    - {fileID: 2800000, guid: 204ea3b7cb2afa6479228b06593edec0, type: 3}
    - {fileID: 2800000, guid: 6041244c960864c498c42df0115c52b6, type: 3}
    - {fileID: 2800000, guid: 51e3c37ca46302245aa671b669e87b1e, type: 3}
    - {fileID: 2800000, guid: c5718eba02c05a54fa45a3baf8f5296f, type: 3}
    - {fileID: 2800000, guid: 4a3db4d6fd7e39a4490d27c2e0d18d38, type: 3}
    - {fileID: 2800000, guid: 068c83c3df5bfeb41a7bd979faaefd57, type: 3}
    - {fileID: 2800000, guid: de03e7a359f1dd84387ef7111358d145, type: 3}
    - {fileID: 2800000, guid: c4ded7ddbb5ddc34ebc7e2dcf8bbd382, type: 3}
  m_AnimationClipSettings:
    serializedVersion: 2
    m_AdditiveReferencePoseClip: {fileID: 0}
    m_AdditiveReferencePoseTime: 0
    m_StartTime: 0
    m_StopTime: 0.6666666
    m_OrientationOffsetY: 0
    m_Level: 0
    m_CycleOffset: 0
    m_HasAdditiveReferencePose: 0
    m_LoopTime: 1
    m_LoopBlend: 0
    m_LoopBlendOrientation: 0
    m_LoopBlendPositionY: 0
    m_LoopBlendPositionXZ: 0
    m_KeepOriginalOrientation: 0
    m_KeepOriginalPositionY: 1
    m_KeepOriginalPositionXZ: 0
    m_HeightFromFeet: 0
    m_Mirror: 0
  m_EditorCurves: []
  m_EulerEditorCurves: []
  m_HasGenericRootTransform: 0
  m_HasMotionFloatCurves: 0
  m_Events: []
