%YAML 1.1
%TAG !u! tag:unity3d.com,2011:
--- !u!74 &7400000
AnimationClip:
  m_ObjectHideFlags: 0
  m_CorrespondingSourceObject: {fileID: 0}
  m_PrefabInstance: {fileID: 0}
  m_PrefabAsset: {fileID: 0}
  m_Name: "\u4E0D\u60F3\u8D70"
  serializedVersion: 6
  m_Legacy: 0
  m_Compressed: 0
  m_UseHighQualityCurve: 1
  m_RotationCurves: []
  m_CompressedRotationCurves: []
  m_EulerCurves: []
  m_PositionCurves: []
  m_ScaleCurves: []
  m_FloatCurves: []
  m_PPtrCurves:
  - curve:
    - time: 0
      value: {fileID: 21300000, guid: 89a15ee44d7f77d4184974baf32c8cec, type: 3}
    - time: 0.033333335
      value: {fileID: 21300000, guid: 22ef20806139c174c9fef7d5560eff53, type: 3}
    - time: 0.06666667
      value: {fileID: 21300000, guid: 2d2bb5ada52db84488c394e622bd92a4, type: 3}
    - time: 0.1
      value: {fileID: 21300000, guid: 6c3b5b2dbf09adc4fb768c77440e2500, type: 3}
    - time: 0.13333334
      value: {fileID: 21300000, guid: ec8089bbc4e131c4281105f25df2e1e0, type: 3}
    - time: 0.16666667
      value: {fileID: 21300000, guid: e8b88ebb1f0973544a16bdc46c808d01, type: 3}
    - time: 0.2
      value: {fileID: 21300000, guid: 74261de6437e8404286c59077b160209, type: 3}
    - time: 0.23333333
      value: {fileID: 21300000, guid: b1f1aeadd1a444645b77c40f1dcd44a9, type: 3}
    - time: 0.26666668
      value: {fileID: 21300000, guid: 1eddb957c4fa673498b0b30881078fd6, type: 3}
    - time: 0.3
      value: {fileID: 21300000, guid: 938ecba81fb87914abf66ce6a8fa97f1, type: 3}
    - time: 0.33333334
      value: {fileID: 21300000, guid: 88548ed27f35c5d4b9ab9d427400fc6a, type: 3}
    - time: 0.36666667
      value: {fileID: 21300000, guid: 56899ee99231a6045a4b446219139743, type: 3}
    - time: 0.4
      value: {fileID: 21300000, guid: 7019475313a50df4cb5daa70c339a569, type: 3}
    - time: 0.43333334
      value: {fileID: 21300000, guid: e265c3e8403dde94abf270ca1d61586b, type: 3}
    - time: 0.46666667
      value: {fileID: 21300000, guid: a76d9cd60b51a31499be82487fe826e0, type: 3}
    - time: 0.5
      value: {fileID: 21300000, guid: 507a1815b30fa9e43b8bd2f5b115e479, type: 3}
    - time: 0.53333336
      value: {fileID: 21300000, guid: 362289e7919855146a179bbd2ecf2efc, type: 3}
    - time: 0.56666666
      value: {fileID: 21300000, guid: a9983a28749f1ab498532e6d353e25f9, type: 3}
    - time: 0.6
      value: {fileID: 21300000, guid: de569b6873795494a9ff55994a394290, type: 3}
    - time: 0.6333333
      value: {fileID: 21300000, guid: dd6cf1fb6110c4f4aa10145693e8b067, type: 3}
    - time: 0.6666667
      value: {fileID: 21300000, guid: e049c8259eca53b47bf0b9a8139df104, type: 3}
    - time: 0.7
      value: {fileID: 21300000, guid: bbaba81a83c0e1f4f853805a8b2bc244, type: 3}
    - time: 0.73333335
      value: {fileID: 21300000, guid: e8105cd5c4ab9ba44ae5a15ecb042fb6, type: 3}
    - time: 0.76666665
      value: {fileID: 21300000, guid: 921c4c0c39294ce42be84a7b17fc4d1a, type: 3}
    - time: 0.8
      value: {fileID: 21300000, guid: 99c43a98a423ffa4ba59a7402763c084, type: 3}
    - time: 0.8333333
      value: {fileID: 21300000, guid: 6a1aff2fe6137a54091728e0bc137b84, type: 3}
    - time: 0.8666667
      value: {fileID: 21300000, guid: 22da996b8b6fc93418777bad39d838b8, type: 3}
    - time: 0.9
      value: {fileID: 21300000, guid: 68605c3ba444fb747be4f356089b05be, type: 3}
    - time: 0.93333334
      value: {fileID: 21300000, guid: 33aa06126681edf4da64ec0c82aabb69, type: 3}
    - time: 0.96666664
      value: {fileID: 21300000, guid: 58718a803438e664f8935947cbb4343c, type: 3}
    - time: 1
      value: {fileID: 21300000, guid: a3d00661600fe2549b6a7dc1dea55516, type: 3}
    - time: 1.0333333
      value: {fileID: 21300000, guid: 77162db51a8d47e4684ed66548e719d5, type: 3}
    - time: 1.0666667
      value: {fileID: 21300000, guid: 472b7909b150cb844949757f9a8cf99f, type: 3}
    - time: 1.1
      value: {fileID: 21300000, guid: 0e7719109730d5148aa38239bc1f4980, type: 3}
    - time: 1.1333333
      value: {fileID: 21300000, guid: 6afcfcd14206aa543a19eb43b369d05e, type: 3}
    - time: 1.1666666
      value: {fileID: 21300000, guid: b729e7cbac80e134a8ee757e54ab6303, type: 3}
    - time: 1.2
      value: {fileID: 21300000, guid: a385adc0ffe43ee41a439f347cd39047, type: 3}
    - time: 1.2333333
      value: {fileID: 21300000, guid: 4daa2fc2de6b2094cb72c17cda78dbe0, type: 3}
    - time: 1.2666667
      value: {fileID: 21300000, guid: d9fd33748bb8ed542a3562372d7b18cb, type: 3}
    - time: 1.3
      value: {fileID: 21300000, guid: 44a3f92e9e9ba6b4685d6640c1c0b0ba, type: 3}
    attribute: m_Sprite
    path: 
    classID: 212
    script: {fileID: 0}
  m_SampleRate: 30
  m_WrapMode: 0
  m_Bounds:
    m_Center: {x: 0, y: 0, z: 0}
    m_Extent: {x: 0, y: 0, z: 0}
  m_ClipBindingConstant:
    genericBindings:
    - serializedVersion: 2
      path: 0
      attribute: 0
      script: {fileID: 0}
      typeID: 212
      customType: 23
      isPPtrCurve: 1
    pptrCurveMapping:
    - {fileID: 21300000, guid: 89a15ee44d7f77d4184974baf32c8cec, type: 3}
    - {fileID: 21300000, guid: 22ef20806139c174c9fef7d5560eff53, type: 3}
    - {fileID: 21300000, guid: 2d2bb5ada52db84488c394e622bd92a4, type: 3}
    - {fileID: 21300000, guid: 6c3b5b2dbf09adc4fb768c77440e2500, type: 3}
    - {fileID: 21300000, guid: ec8089bbc4e131c4281105f25df2e1e0, type: 3}
    - {fileID: 21300000, guid: e8b88ebb1f0973544a16bdc46c808d01, type: 3}
    - {fileID: 21300000, guid: 74261de6437e8404286c59077b160209, type: 3}
    - {fileID: 21300000, guid: b1f1aeadd1a444645b77c40f1dcd44a9, type: 3}
    - {fileID: 21300000, guid: 1eddb957c4fa673498b0b30881078fd6, type: 3}
    - {fileID: 21300000, guid: 938ecba81fb87914abf66ce6a8fa97f1, type: 3}
    - {fileID: 21300000, guid: 88548ed27f35c5d4b9ab9d427400fc6a, type: 3}
    - {fileID: 21300000, guid: 56899ee99231a6045a4b446219139743, type: 3}
    - {fileID: 21300000, guid: 7019475313a50df4cb5daa70c339a569, type: 3}
    - {fileID: 21300000, guid: e265c3e8403dde94abf270ca1d61586b, type: 3}
    - {fileID: 21300000, guid: a76d9cd60b51a31499be82487fe826e0, type: 3}
    - {fileID: 21300000, guid: 507a1815b30fa9e43b8bd2f5b115e479, type: 3}
    - {fileID: 21300000, guid: 362289e7919855146a179bbd2ecf2efc, type: 3}
    - {fileID: 21300000, guid: a9983a28749f1ab498532e6d353e25f9, type: 3}
    - {fileID: 21300000, guid: de569b6873795494a9ff55994a394290, type: 3}
    - {fileID: 21300000, guid: dd6cf1fb6110c4f4aa10145693e8b067, type: 3}
    - {fileID: 21300000, guid: e049c8259eca53b47bf0b9a8139df104, type: 3}
    - {fileID: 21300000, guid: bbaba81a83c0e1f4f853805a8b2bc244, type: 3}
    - {fileID: 21300000, guid: e8105cd5c4ab9ba44ae5a15ecb042fb6, type: 3}
    - {fileID: 21300000, guid: 921c4c0c39294ce42be84a7b17fc4d1a, type: 3}
    - {fileID: 21300000, guid: 99c43a98a423ffa4ba59a7402763c084, type: 3}
    - {fileID: 21300000, guid: 6a1aff2fe6137a54091728e0bc137b84, type: 3}
    - {fileID: 21300000, guid: 22da996b8b6fc93418777bad39d838b8, type: 3}
    - {fileID: 21300000, guid: 68605c3ba444fb747be4f356089b05be, type: 3}
    - {fileID: 21300000, guid: 33aa06126681edf4da64ec0c82aabb69, type: 3}
    - {fileID: 21300000, guid: 58718a803438e664f8935947cbb4343c, type: 3}
    - {fileID: 21300000, guid: a3d00661600fe2549b6a7dc1dea55516, type: 3}
    - {fileID: 21300000, guid: 77162db51a8d47e4684ed66548e719d5, type: 3}
    - {fileID: 21300000, guid: 472b7909b150cb844949757f9a8cf99f, type: 3}
    - {fileID: 21300000, guid: 0e7719109730d5148aa38239bc1f4980, type: 3}
    - {fileID: 21300000, guid: 6afcfcd14206aa543a19eb43b369d05e, type: 3}
    - {fileID: 21300000, guid: b729e7cbac80e134a8ee757e54ab6303, type: 3}
    - {fileID: 21300000, guid: a385adc0ffe43ee41a439f347cd39047, type: 3}
    - {fileID: 21300000, guid: 4daa2fc2de6b2094cb72c17cda78dbe0, type: 3}
    - {fileID: 21300000, guid: d9fd33748bb8ed542a3562372d7b18cb, type: 3}
    - {fileID: 21300000, guid: 44a3f92e9e9ba6b4685d6640c1c0b0ba, type: 3}
  m_AnimationClipSettings:
    serializedVersion: 2
    m_AdditiveReferencePoseClip: {fileID: 0}
    m_AdditiveReferencePoseTime: 0
    m_StartTime: 0
    m_StopTime: 1.3333333
    m_OrientationOffsetY: 0
    m_Level: 0
    m_CycleOffset: 0
    m_HasAdditiveReferencePose: 0
    m_LoopTime: 0
    m_LoopBlend: 0
    m_LoopBlendOrientation: 0
    m_LoopBlendPositionY: 0
    m_LoopBlendPositionXZ: 0
    m_KeepOriginalOrientation: 0
    m_KeepOriginalPositionY: 1
    m_KeepOriginalPositionXZ: 0
    m_HeightFromFeet: 0
    m_Mirror: 0
  m_EditorCurves: []
  m_EulerEditorCurves: []
  m_HasGenericRootTransform: 0
  m_HasMotionFloatCurves: 0
  m_Events: []
