%YAML 1.1
%TAG !u! tag:unity3d.com,2011:
--- !u!74 &7400000
AnimationClip:
  m_ObjectHideFlags: 0
  m_CorrespondingSourceObject: {fileID: 0}
  m_PrefabInstance: {fileID: 0}
  m_PrefabAsset: {fileID: 0}
  m_Name: camera_right
  serializedVersion: 6
  m_Legacy: 0
  m_Compressed: 0
  m_UseHighQualityCurve: 1
  m_RotationCurves: []
  m_CompressedRotationCurves: []
  m_EulerCurves: []
  m_PositionCurves: []
  m_ScaleCurves: []
  m_FloatCurves: []
  m_PPtrCurves:
  - curve:
    - time: 0
      value: {fileID: 21300000, guid: c3670e048093454489e8497186e004c6, type: 3}
    - time: 0.033333335
      value: {fileID: 21300000, guid: c13d96b05fccbca41b0ade64181e8e56, type: 3}
    - time: 0.06666667
      value: {fileID: 21300000, guid: 7bf2065b203f75746be77832db68ece7, type: 3}
    - time: 0.1
      value: {fileID: 21300000, guid: 26cc30d707b956249883d1d80b989660, type: 3}
    - time: 0.13333334
      value: {fileID: 21300000, guid: 7f60b42b50939a24dbf7fc3ce46719cc, type: 3}
    - time: 0.16666667
      value: {fileID: 21300000, guid: 70502456937e2d245b5f158346e87c3d, type: 3}
    - time: 0.2
      value: {fileID: 21300000, guid: 4047def7b477328448aff4f6f6c6faa9, type: 3}
    - time: 0.23333333
      value: {fileID: 21300000, guid: afb57c0189ff8314ca0271f6dd2711fd, type: 3}
    - time: 0.26666668
      value: {fileID: 21300000, guid: 176a3418451571941be9fdd96882cd97, type: 3}
    - time: 0.3
      value: {fileID: 21300000, guid: b26090a46a9ee5d44b1f66c35cc03de3, type: 3}
    - time: 0.33333334
      value: {fileID: 21300000, guid: 9a4d9f9e8c7c5494d919794562a23745, type: 3}
    - time: 0.36666667
      value: {fileID: 21300000, guid: 9de43c7f813cf8b41bd81089980b1b81, type: 3}
    - time: 0.4
      value: {fileID: 21300000, guid: 0200fbc7925a063499d688318cc23bc8, type: 3}
    - time: 0.43333334
      value: {fileID: 21300000, guid: 59e29d459c58a0545b37611b1d1048e7, type: 3}
    - time: 0.46666667
      value: {fileID: 21300000, guid: 7a0154cdcb8753c4b8f440e75d5be0a4, type: 3}
    - time: 0.5
      value: {fileID: 21300000, guid: 12b01891ee828944492c8950101775ff, type: 3}
    - time: 0.53333336
      value: {fileID: 21300000, guid: 49d1c0a5d49454144a7c627ed894000a, type: 3}
    - time: 0.56666666
      value: {fileID: 21300000, guid: ccddcad1a0cb4d64ab7dd42a054d0691, type: 3}
    - time: 0.6
      value: {fileID: 21300000, guid: 92c6782e91b18aa4ca6fff037ba93fd7, type: 3}
    - time: 0.6333333
      value: {fileID: 21300000, guid: b36ad1da9944a2e42a650515e934a96a, type: 3}
    - time: 0.6666667
      value: {fileID: 21300000, guid: 1046120dc5486ab49904de042ba9e070, type: 3}
    - time: 0.7
      value: {fileID: 21300000, guid: b71642cded9e90e40b6105284f483bb7, type: 3}
    - time: 0.73333335
      value: {fileID: 21300000, guid: a4ed168c8be01294094587827d34bc00, type: 3}
    - time: 0.76666665
      value: {fileID: 21300000, guid: 39f38a3a49770a84dade1a44dfdc38e3, type: 3}
    - time: 0.8
      value: {fileID: 21300000, guid: 47dac75baa76b034c8c8f47fc7cef8ae, type: 3}
    - time: 0.8333333
      value: {fileID: 21300000, guid: bb5cba2fce9254a428ad031cd1c049a0, type: 3}
    - time: 0.8666667
      value: {fileID: 21300000, guid: fa71107b18f01d2488a184943bfb28d8, type: 3}
    - time: 0.9
      value: {fileID: 21300000, guid: 5988409253f829a43ae77d7bdd53f31a, type: 3}
    - time: 0.93333334
      value: {fileID: 21300000, guid: fee1033d958f02e46ba9fa47d8fb2ce5, type: 3}
    - time: 0.96666664
      value: {fileID: 21300000, guid: b4deee8d2b291f34aab28713e05d29d0, type: 3}
    - time: 1
      value: {fileID: 21300000, guid: d96ea81795445d849906b8e7e41c69fe, type: 3}
    - time: 1.0333333
      value: {fileID: 21300000, guid: 9fa5cb86e72a09b47933b04b46cf9dec, type: 3}
    - time: 1.0666667
      value: {fileID: 21300000, guid: ea850431781073a46b4d1f384971e6db, type: 3}
    - time: 1.1
      value: {fileID: 21300000, guid: 1b56d24eeda3a814e9928fc7f78b337a, type: 3}
    - time: 1.1333333
      value: {fileID: 21300000, guid: dedbe79b5e5e59a44b32d8b10c62e7e4, type: 3}
    - time: 1.1666666
      value: {fileID: 21300000, guid: 332ddf2ce615d0d45b2ca188aba8dd73, type: 3}
    - time: 1.2
      value: {fileID: 21300000, guid: 3120bd4153538f140b4fa7359b9bf1db, type: 3}
    - time: 1.2333333
      value: {fileID: 21300000, guid: 7a08c481c1fcdb644b8778e387c5e4b1, type: 3}
    - time: 1.2666667
      value: {fileID: 21300000, guid: 005c1530c41d221499101793ed4c4f49, type: 3}
    - time: 1.3
      value: {fileID: 21300000, guid: 939c28bebca5af74b81a554ac8bca288, type: 3}
    - time: 1.3333334
      value: {fileID: 21300000, guid: f5538d7fb5e7a6e4cb52fdcd78142309, type: 3}
    - time: 1.3666667
      value: {fileID: 21300000, guid: 0e025691858201b4cac0fee52f67b814, type: 3}
    - time: 1.4
      value: {fileID: 21300000, guid: d73b7c6519e2d4e44bee1f9997c425a1, type: 3}
    - time: 1.4333333
      value: {fileID: 21300000, guid: 9ad1554924ddb4a43b61221f02b7aa7b, type: 3}
    - time: 1.4666667
      value: {fileID: 21300000, guid: d69a8504a567c794abad97055f223a58, type: 3}
    - time: 1.5
      value: {fileID: 21300000, guid: f9c22510bbccfb24baed86d7b5f6c50e, type: 3}
    - time: 1.5333333
      value: {fileID: 21300000, guid: f3fcd03ab00d8fd408de04bc0c42adae, type: 3}
    - time: 1.5666667
      value: {fileID: 21300000, guid: 1b9df6bbbdb4f1d45870efb722e4e77e, type: 3}
    - time: 1.6
      value: {fileID: 21300000, guid: 3b8b1b404575bd943890d1318229f708, type: 3}
    - time: 1.6333333
      value: {fileID: 21300000, guid: 05864050c97af2c45b9f5988821c1e8c, type: 3}
    - time: 1.6666666
      value: {fileID: 21300000, guid: a8ea46ed0f429ae40809374e31ec59a2, type: 3}
    - time: 1.7
      value: {fileID: 21300000, guid: 411b7b79f89a07245802af4fb7d31222, type: 3}
    - time: 1.7333333
      value: {fileID: 21300000, guid: 1f910fbdefbcbda47be68205a43f8870, type: 3}
    - time: 1.7666667
      value: {fileID: 21300000, guid: c7d8f9e9af6ff4a48878431b7c9565dd, type: 3}
    - time: 1.8
      value: {fileID: 21300000, guid: c46cb50451897bb489bfade859d0f599, type: 3}
    - time: 1.8333334
      value: {fileID: 21300000, guid: 311b8b2f0b4de0f44b44cd7236b44c77, type: 3}
    - time: 1.8666667
      value: {fileID: 21300000, guid: 8f46a4f485478de4d90047d4fa8c07b4, type: 3}
    - time: 1.9
      value: {fileID: 21300000, guid: 4d272201131a1ba4bb355001aa837647, type: 3}
    - time: 1.9333333
      value: {fileID: 21300000, guid: 8f9826f6f5d808b478176b4cb7b7bf8d, type: 3}
    - time: 1.9666667
      value: {fileID: 21300000, guid: b135fd6657d71b94fa3659255363826d, type: 3}
    attribute: m_Sprite
    path: 
    classID: 212
    script: {fileID: 0}
  m_SampleRate: 30
  m_WrapMode: 0
  m_Bounds:
    m_Center: {x: 0, y: 0, z: 0}
    m_Extent: {x: 0, y: 0, z: 0}
  m_ClipBindingConstant:
    genericBindings:
    - serializedVersion: 2
      path: 0
      attribute: 0
      script: {fileID: 0}
      typeID: 212
      customType: 23
      isPPtrCurve: 1
    pptrCurveMapping:
    - {fileID: 21300000, guid: c3670e048093454489e8497186e004c6, type: 3}
    - {fileID: 21300000, guid: c13d96b05fccbca41b0ade64181e8e56, type: 3}
    - {fileID: 21300000, guid: 7bf2065b203f75746be77832db68ece7, type: 3}
    - {fileID: 21300000, guid: 26cc30d707b956249883d1d80b989660, type: 3}
    - {fileID: 21300000, guid: 7f60b42b50939a24dbf7fc3ce46719cc, type: 3}
    - {fileID: 21300000, guid: 70502456937e2d245b5f158346e87c3d, type: 3}
    - {fileID: 21300000, guid: 4047def7b477328448aff4f6f6c6faa9, type: 3}
    - {fileID: 21300000, guid: afb57c0189ff8314ca0271f6dd2711fd, type: 3}
    - {fileID: 21300000, guid: 176a3418451571941be9fdd96882cd97, type: 3}
    - {fileID: 21300000, guid: b26090a46a9ee5d44b1f66c35cc03de3, type: 3}
    - {fileID: 21300000, guid: 9a4d9f9e8c7c5494d919794562a23745, type: 3}
    - {fileID: 21300000, guid: 9de43c7f813cf8b41bd81089980b1b81, type: 3}
    - {fileID: 21300000, guid: 0200fbc7925a063499d688318cc23bc8, type: 3}
    - {fileID: 21300000, guid: 59e29d459c58a0545b37611b1d1048e7, type: 3}
    - {fileID: 21300000, guid: 7a0154cdcb8753c4b8f440e75d5be0a4, type: 3}
    - {fileID: 21300000, guid: 12b01891ee828944492c8950101775ff, type: 3}
    - {fileID: 21300000, guid: 49d1c0a5d49454144a7c627ed894000a, type: 3}
    - {fileID: 21300000, guid: ccddcad1a0cb4d64ab7dd42a054d0691, type: 3}
    - {fileID: 21300000, guid: 92c6782e91b18aa4ca6fff037ba93fd7, type: 3}
    - {fileID: 21300000, guid: b36ad1da9944a2e42a650515e934a96a, type: 3}
    - {fileID: 21300000, guid: 1046120dc5486ab49904de042ba9e070, type: 3}
    - {fileID: 21300000, guid: b71642cded9e90e40b6105284f483bb7, type: 3}
    - {fileID: 21300000, guid: a4ed168c8be01294094587827d34bc00, type: 3}
    - {fileID: 21300000, guid: 39f38a3a49770a84dade1a44dfdc38e3, type: 3}
    - {fileID: 21300000, guid: 47dac75baa76b034c8c8f47fc7cef8ae, type: 3}
    - {fileID: 21300000, guid: bb5cba2fce9254a428ad031cd1c049a0, type: 3}
    - {fileID: 21300000, guid: fa71107b18f01d2488a184943bfb28d8, type: 3}
    - {fileID: 21300000, guid: 5988409253f829a43ae77d7bdd53f31a, type: 3}
    - {fileID: 21300000, guid: fee1033d958f02e46ba9fa47d8fb2ce5, type: 3}
    - {fileID: 21300000, guid: b4deee8d2b291f34aab28713e05d29d0, type: 3}
    - {fileID: 21300000, guid: d96ea81795445d849906b8e7e41c69fe, type: 3}
    - {fileID: 21300000, guid: 9fa5cb86e72a09b47933b04b46cf9dec, type: 3}
    - {fileID: 21300000, guid: ea850431781073a46b4d1f384971e6db, type: 3}
    - {fileID: 21300000, guid: 1b56d24eeda3a814e9928fc7f78b337a, type: 3}
    - {fileID: 21300000, guid: dedbe79b5e5e59a44b32d8b10c62e7e4, type: 3}
    - {fileID: 21300000, guid: 332ddf2ce615d0d45b2ca188aba8dd73, type: 3}
    - {fileID: 21300000, guid: 3120bd4153538f140b4fa7359b9bf1db, type: 3}
    - {fileID: 21300000, guid: 7a08c481c1fcdb644b8778e387c5e4b1, type: 3}
    - {fileID: 21300000, guid: 005c1530c41d221499101793ed4c4f49, type: 3}
    - {fileID: 21300000, guid: 939c28bebca5af74b81a554ac8bca288, type: 3}
    - {fileID: 21300000, guid: f5538d7fb5e7a6e4cb52fdcd78142309, type: 3}
    - {fileID: 21300000, guid: 0e025691858201b4cac0fee52f67b814, type: 3}
    - {fileID: 21300000, guid: d73b7c6519e2d4e44bee1f9997c425a1, type: 3}
    - {fileID: 21300000, guid: 9ad1554924ddb4a43b61221f02b7aa7b, type: 3}
    - {fileID: 21300000, guid: d69a8504a567c794abad97055f223a58, type: 3}
    - {fileID: 21300000, guid: f9c22510bbccfb24baed86d7b5f6c50e, type: 3}
    - {fileID: 21300000, guid: f3fcd03ab00d8fd408de04bc0c42adae, type: 3}
    - {fileID: 21300000, guid: 1b9df6bbbdb4f1d45870efb722e4e77e, type: 3}
    - {fileID: 21300000, guid: 3b8b1b404575bd943890d1318229f708, type: 3}
    - {fileID: 21300000, guid: 05864050c97af2c45b9f5988821c1e8c, type: 3}
    - {fileID: 21300000, guid: a8ea46ed0f429ae40809374e31ec59a2, type: 3}
    - {fileID: 21300000, guid: 411b7b79f89a07245802af4fb7d31222, type: 3}
    - {fileID: 21300000, guid: 1f910fbdefbcbda47be68205a43f8870, type: 3}
    - {fileID: 21300000, guid: c7d8f9e9af6ff4a48878431b7c9565dd, type: 3}
    - {fileID: 21300000, guid: c46cb50451897bb489bfade859d0f599, type: 3}
    - {fileID: 21300000, guid: 311b8b2f0b4de0f44b44cd7236b44c77, type: 3}
    - {fileID: 21300000, guid: 8f46a4f485478de4d90047d4fa8c07b4, type: 3}
    - {fileID: 21300000, guid: 4d272201131a1ba4bb355001aa837647, type: 3}
    - {fileID: 21300000, guid: 8f9826f6f5d808b478176b4cb7b7bf8d, type: 3}
    - {fileID: 21300000, guid: b135fd6657d71b94fa3659255363826d, type: 3}
  m_AnimationClipSettings:
    serializedVersion: 2
    m_AdditiveReferencePoseClip: {fileID: 0}
    m_AdditiveReferencePoseTime: 0
    m_StartTime: 0
    m_StopTime: 2
    m_OrientationOffsetY: 0
    m_Level: 0
    m_CycleOffset: 0
    m_HasAdditiveReferencePose: 0
    m_LoopTime: 1
    m_LoopBlend: 0
    m_LoopBlendOrientation: 0
    m_LoopBlendPositionY: 0
    m_LoopBlendPositionXZ: 0
    m_KeepOriginalOrientation: 0
    m_KeepOriginalPositionY: 1
    m_KeepOriginalPositionXZ: 0
    m_HeightFromFeet: 0
    m_Mirror: 0
  m_EditorCurves: []
  m_EulerEditorCurves: []
  m_HasGenericRootTransform: 0
  m_HasMotionFloatCurves: 0
  m_Events: []
