%YAML 1.1
%TAG !u! tag:unity3d.com,2011:
--- !u!74 &7400000
AnimationClip:
  m_ObjectHideFlags: 0
  m_CorrespondingSourceObject: {fileID: 0}
  m_PrefabInstance: {fileID: 0}
  m_PrefabAsset: {fileID: 0}
  m_Name: New Animation
  serializedVersion: 6
  m_Legacy: 0
  m_Compressed: 0
  m_UseHighQualityCurve: 1
  m_RotationCurves: []
  m_CompressedRotationCurves: []
  m_EulerCurves: []
  m_PositionCurves: []
  m_ScaleCurves: []
  m_FloatCurves: []
  m_PPtrCurves:
  - curve:
    - time: 0
      value: {fileID: 21300000, guid: 78abd5a67fc26ae4d96d83489516c90f, type: 3}
    - time: 0.033333335
      value: {fileID: 21300000, guid: e9ed3efdfc31fc2448fb2a8217eafd7c, type: 3}
    - time: 0.06666667
      value: {fileID: 21300000, guid: ecb65ae27a962a943860eee5d91d51de, type: 3}
    - time: 0.1
      value: {fileID: 21300000, guid: e016b6c198fb18d42a8dc437ab4be1ab, type: 3}
    - time: 0.13333334
      value: {fileID: 21300000, guid: 261f359f0df245f43ba0d427ef6022cf, type: 3}
    - time: 0.16666667
      value: {fileID: 21300000, guid: 245f5877581b30d4fbc4310dde49fb9f, type: 3}
    - time: 0.2
      value: {fileID: 21300000, guid: 1f06d77195248cb4a8bd5bdf8e2d27f9, type: 3}
    - time: 0.23333333
      value: {fileID: 21300000, guid: e1648ee72ed855a409f82863f0fcdbe7, type: 3}
    - time: 0.26666668
      value: {fileID: 21300000, guid: 0e965d937bfb9e8408d9ab2fe088e017, type: 3}
    - time: 0.3
      value: {fileID: 21300000, guid: 29139de21dbdc994bb93dadcc7fe8249, type: 3}
    - time: 0.33333334
      value: {fileID: 21300000, guid: ec1ab11d3e864324091a54d2fe5bd41a, type: 3}
    - time: 0.36666667
      value: {fileID: 21300000, guid: 216ff0d47ff5d684b85436ab649cdcf6, type: 3}
    - time: 0.4
      value: {fileID: 21300000, guid: bc1c5988cfd25ab4aaa142f6e4650a61, type: 3}
    - time: 0.43333334
      value: {fileID: 21300000, guid: 31333d44fb48b5b43ba2fdc7cf76f57d, type: 3}
    - time: 0.46666667
      value: {fileID: 21300000, guid: b76dcec2cef2a9444a88cf2dbb08a96e, type: 3}
    - time: 0.5
      value: {fileID: 21300000, guid: a323c880a7eb1684baf0778e1422225a, type: 3}
    - time: 0.53333336
      value: {fileID: 21300000, guid: a7cb230786fd011479cd598db3799dec, type: 3}
    - time: 0.56666666
      value: {fileID: 21300000, guid: 9e703842226d41048887f56fba9d4de0, type: 3}
    - time: 0.6
      value: {fileID: 21300000, guid: e64affc0f609c344892aaccbae76904e, type: 3}
    - time: 0.6333333
      value: {fileID: 21300000, guid: 7456ecc2b5039a14fbb4ec868ecbffc7, type: 3}
    - time: 0.6666667
      value: {fileID: 21300000, guid: f6604b6f6447a2e4384a3d23fab6b62c, type: 3}
    - time: 0.7
      value: {fileID: 21300000, guid: 07160998f48f06a419e7dcb45a558e33, type: 3}
    - time: 0.73333335
      value: {fileID: 21300000, guid: d594139e7b398974d9f7210f379cc81f, type: 3}
    - time: 0.76666665
      value: {fileID: 21300000, guid: e55dd1d8c91db20478cbd15e3b811ce6, type: 3}
    - time: 0.8
      value: {fileID: 21300000, guid: b337065604c097f4d88bf65bd166f770, type: 3}
    - time: 0.8333333
      value: {fileID: 21300000, guid: 9709f55ad9df8af4089064246329d11b, type: 3}
    - time: 0.8666667
      value: {fileID: 21300000, guid: ddd5b9b8f796ee74db60df5b7060fa86, type: 3}
    - time: 0.9
      value: {fileID: 21300000, guid: feb8a0c809a186c45999e22131f7f665, type: 3}
    - time: 0.93333334
      value: {fileID: 21300000, guid: 17a222b338201e044a396450af2a8568, type: 3}
    - time: 0.96666664
      value: {fileID: 21300000, guid: 3b3bb92ef12e8d4489b312e1757f3e0a, type: 3}
    - time: 1
      value: {fileID: 21300000, guid: 0a15ea8731735f34bb49086970d4dc42, type: 3}
    - time: 1.0333333
      value: {fileID: 21300000, guid: a41f80fde1023e447b36f61464b9294e, type: 3}
    - time: 1.0666667
      value: {fileID: 21300000, guid: 6545f48b04c62e6498a252ecb6ec1370, type: 3}
    - time: 1.1
      value: {fileID: 21300000, guid: 2cb24359281d41048960d96f3688712c, type: 3}
    - time: 1.1333333
      value: {fileID: 21300000, guid: d2040feacd79e274ca997e54b2ffb948, type: 3}
    - time: 1.1666666
      value: {fileID: 21300000, guid: 54545cf8aca9f2b4cb0796a27b73a4b6, type: 3}
    - time: 1.2
      value: {fileID: 21300000, guid: f5ef4107c88616e4586f6832f4bc22f4, type: 3}
    - time: 1.2333333
      value: {fileID: 21300000, guid: f540ad7b0ed5b484f8836d089f5dca06, type: 3}
    - time: 1.2666667
      value: {fileID: 21300000, guid: ee7530cf5cbbdaa4ea454540238f4ca2, type: 3}
    - time: 1.3
      value: {fileID: 21300000, guid: 0757a6daa829e8140b44f9d1ca7ce5b8, type: 3}
    attribute: m_Sprite
    path: 
    classID: 212
    script: {fileID: 0}
  m_SampleRate: 30
  m_WrapMode: 0
  m_Bounds:
    m_Center: {x: 0, y: 0, z: 0}
    m_Extent: {x: 0, y: 0, z: 0}
  m_ClipBindingConstant:
    genericBindings:
    - serializedVersion: 2
      path: 0
      attribute: 0
      script: {fileID: 0}
      typeID: 212
      customType: 23
      isPPtrCurve: 1
    pptrCurveMapping:
    - {fileID: 21300000, guid: 78abd5a67fc26ae4d96d83489516c90f, type: 3}
    - {fileID: 21300000, guid: e9ed3efdfc31fc2448fb2a8217eafd7c, type: 3}
    - {fileID: 21300000, guid: ecb65ae27a962a943860eee5d91d51de, type: 3}
    - {fileID: 21300000, guid: e016b6c198fb18d42a8dc437ab4be1ab, type: 3}
    - {fileID: 21300000, guid: 261f359f0df245f43ba0d427ef6022cf, type: 3}
    - {fileID: 21300000, guid: 245f5877581b30d4fbc4310dde49fb9f, type: 3}
    - {fileID: 21300000, guid: 1f06d77195248cb4a8bd5bdf8e2d27f9, type: 3}
    - {fileID: 21300000, guid: e1648ee72ed855a409f82863f0fcdbe7, type: 3}
    - {fileID: 21300000, guid: 0e965d937bfb9e8408d9ab2fe088e017, type: 3}
    - {fileID: 21300000, guid: 29139de21dbdc994bb93dadcc7fe8249, type: 3}
    - {fileID: 21300000, guid: ec1ab11d3e864324091a54d2fe5bd41a, type: 3}
    - {fileID: 21300000, guid: 216ff0d47ff5d684b85436ab649cdcf6, type: 3}
    - {fileID: 21300000, guid: bc1c5988cfd25ab4aaa142f6e4650a61, type: 3}
    - {fileID: 21300000, guid: 31333d44fb48b5b43ba2fdc7cf76f57d, type: 3}
    - {fileID: 21300000, guid: b76dcec2cef2a9444a88cf2dbb08a96e, type: 3}
    - {fileID: 21300000, guid: a323c880a7eb1684baf0778e1422225a, type: 3}
    - {fileID: 21300000, guid: a7cb230786fd011479cd598db3799dec, type: 3}
    - {fileID: 21300000, guid: 9e703842226d41048887f56fba9d4de0, type: 3}
    - {fileID: 21300000, guid: e64affc0f609c344892aaccbae76904e, type: 3}
    - {fileID: 21300000, guid: 7456ecc2b5039a14fbb4ec868ecbffc7, type: 3}
    - {fileID: 21300000, guid: f6604b6f6447a2e4384a3d23fab6b62c, type: 3}
    - {fileID: 21300000, guid: 07160998f48f06a419e7dcb45a558e33, type: 3}
    - {fileID: 21300000, guid: d594139e7b398974d9f7210f379cc81f, type: 3}
    - {fileID: 21300000, guid: e55dd1d8c91db20478cbd15e3b811ce6, type: 3}
    - {fileID: 21300000, guid: b337065604c097f4d88bf65bd166f770, type: 3}
    - {fileID: 21300000, guid: 9709f55ad9df8af4089064246329d11b, type: 3}
    - {fileID: 21300000, guid: ddd5b9b8f796ee74db60df5b7060fa86, type: 3}
    - {fileID: 21300000, guid: feb8a0c809a186c45999e22131f7f665, type: 3}
    - {fileID: 21300000, guid: 17a222b338201e044a396450af2a8568, type: 3}
    - {fileID: 21300000, guid: 3b3bb92ef12e8d4489b312e1757f3e0a, type: 3}
    - {fileID: 21300000, guid: 0a15ea8731735f34bb49086970d4dc42, type: 3}
    - {fileID: 21300000, guid: a41f80fde1023e447b36f61464b9294e, type: 3}
    - {fileID: 21300000, guid: 6545f48b04c62e6498a252ecb6ec1370, type: 3}
    - {fileID: 21300000, guid: 2cb24359281d41048960d96f3688712c, type: 3}
    - {fileID: 21300000, guid: d2040feacd79e274ca997e54b2ffb948, type: 3}
    - {fileID: 21300000, guid: 54545cf8aca9f2b4cb0796a27b73a4b6, type: 3}
    - {fileID: 21300000, guid: f5ef4107c88616e4586f6832f4bc22f4, type: 3}
    - {fileID: 21300000, guid: f540ad7b0ed5b484f8836d089f5dca06, type: 3}
    - {fileID: 21300000, guid: ee7530cf5cbbdaa4ea454540238f4ca2, type: 3}
    - {fileID: 21300000, guid: 0757a6daa829e8140b44f9d1ca7ce5b8, type: 3}
  m_AnimationClipSettings:
    serializedVersion: 2
    m_AdditiveReferencePoseClip: {fileID: 0}
    m_AdditiveReferencePoseTime: 0
    m_StartTime: 0
    m_StopTime: 1.3333333
    m_OrientationOffsetY: 0
    m_Level: 0
    m_CycleOffset: 0
    m_HasAdditiveReferencePose: 0
    m_LoopTime: 1
    m_LoopBlend: 0
    m_LoopBlendOrientation: 0
    m_LoopBlendPositionY: 0
    m_LoopBlendPositionXZ: 0
    m_KeepOriginalOrientation: 0
    m_KeepOriginalPositionY: 1
    m_KeepOriginalPositionXZ: 0
    m_HeightFromFeet: 0
    m_Mirror: 0
  m_EditorCurves: []
  m_EulerEditorCurves: []
  m_HasGenericRootTransform: 0
  m_HasMotionFloatCurves: 0
  m_Events: []
