%YAML 1.1
%TAG !u! tag:unity3d.com,2011:
--- !u!74 &7400000
AnimationClip:
  m_ObjectHideFlags: 0
  m_CorrespondingSourceObject: {fileID: 0}
  m_PrefabInstance: {fileID: 0}
  m_PrefabAsset: {fileID: 0}
  m_Name: "\u8056\u8A95"
  serializedVersion: 6
  m_Legacy: 0
  m_Compressed: 0
  m_UseHighQualityCurve: 1
  m_RotationCurves: []
  m_CompressedRotationCurves: []
  m_EulerCurves: []
  m_PositionCurves: []
  m_ScaleCurves: []
  m_FloatCurves: []
  m_PPtrCurves:
  - curve:
    - time: 0
      value: {fileID: 21300000, guid: aa8744062dc3d144b9ec1ff6a08c1e45, type: 3}
    - time: 0.033333335
      value: {fileID: 21300000, guid: 2931b91254356204589b535eea2f6b21, type: 3}
    - time: 0.06666667
      value: {fileID: 21300000, guid: cc7ed88aecd48bf42abff66ae8156dbe, type: 3}
    - time: 0.1
      value: {fileID: 21300000, guid: 88678d24142995b479cb751d78812cd6, type: 3}
    - time: 0.13333334
      value: {fileID: 21300000, guid: c4a8aa1a669716340aa7484880f77298, type: 3}
    - time: 0.16666667
      value: {fileID: 21300000, guid: 38a2463f6217bb74dac082da99694afb, type: 3}
    - time: 0.2
      value: {fileID: 21300000, guid: 6f91338bf9afad749876192d2d6e7a03, type: 3}
    - time: 0.23333333
      value: {fileID: 21300000, guid: 7915400ec30b3434d9993faacf441421, type: 3}
    - time: 0.26666668
      value: {fileID: 21300000, guid: 5ea91a8a3d48c8241943e9aecf6256a6, type: 3}
    - time: 0.3
      value: {fileID: 21300000, guid: 58c7e00fbf282d14398e3b3afc851e56, type: 3}
    - time: 0.33333334
      value: {fileID: 21300000, guid: 85d021f9461b9ac498a005f8e22c9f7a, type: 3}
    - time: 0.36666667
      value: {fileID: 21300000, guid: cc3410cd81947a045a190f913c996a02, type: 3}
    - time: 0.4
      value: {fileID: 21300000, guid: 9a6704da5bab5af488e9c643b85e4421, type: 3}
    - time: 0.43333334
      value: {fileID: 21300000, guid: c049727434d54d7408f08c589227be94, type: 3}
    - time: 0.46666667
      value: {fileID: 21300000, guid: c17d05865133552488bb031651627d09, type: 3}
    - time: 0.5
      value: {fileID: 21300000, guid: 00d727b026fd61d4dbc0af2b9b920e83, type: 3}
    - time: 0.53333336
      value: {fileID: 21300000, guid: 4af25b1b5b47e64439c4bcebd483f68a, type: 3}
    - time: 0.56666666
      value: {fileID: 21300000, guid: de07b9b82ac22d64996eeec95a67771b, type: 3}
    - time: 0.6
      value: {fileID: 21300000, guid: de156cf2a90a8c9419de5c5d46616a8a, type: 3}
    - time: 0.6333333
      value: {fileID: 21300000, guid: f02343c0a1a72774fb61a772191620e9, type: 3}
    - time: 0.6666667
      value: {fileID: 21300000, guid: 31932a4e3c6239d489d406c879505ded, type: 3}
    - time: 0.7
      value: {fileID: 21300000, guid: cd93509652d85fe42ba54b3252935a80, type: 3}
    - time: 0.73333335
      value: {fileID: 21300000, guid: be2bcc4def03526488982e850431cb1f, type: 3}
    - time: 0.76666665
      value: {fileID: 21300000, guid: b8e48722d68f3ee44a2cc3e63cf144c0, type: 3}
    - time: 0.8
      value: {fileID: 21300000, guid: 6555b9575360de641b94580fe77807b0, type: 3}
    - time: 0.8333333
      value: {fileID: 21300000, guid: 68f2dc3423d8ef94dadebecc9dc69477, type: 3}
    - time: 0.8666667
      value: {fileID: 21300000, guid: 6e21e0a23d04e9e41a8e246827a361a3, type: 3}
    - time: 0.9
      value: {fileID: 21300000, guid: e6aafb0e453223548871959435acdcd2, type: 3}
    - time: 0.93333334
      value: {fileID: 21300000, guid: 17b5b81a3b741ca47a049ff2f981ba2f, type: 3}
    - time: 0.96666664
      value: {fileID: 21300000, guid: 1e3b65740d14f42498a8452c5066a2a0, type: 3}
    - time: 1
      value: {fileID: 21300000, guid: f3baa7d4973eda24dac78638a11b86a0, type: 3}
    - time: 1.0333333
      value: {fileID: 21300000, guid: 0009102ef8388694984356da67e9e2bd, type: 3}
    - time: 1.0666667
      value: {fileID: 21300000, guid: f8073f1b73ae38e46a0cf17e49176094, type: 3}
    - time: 1.1
      value: {fileID: 21300000, guid: 3308c8ee107f08b43ba6b39c41743444, type: 3}
    - time: 1.1333333
      value: {fileID: 21300000, guid: 9f99c390547d3b1428d340c03b1e7c5a, type: 3}
    - time: 1.1666666
      value: {fileID: 21300000, guid: a5ef0959a82443c4188883817d4460a8, type: 3}
    - time: 1.2
      value: {fileID: 21300000, guid: 98cfb811798a4694b82d276710bf5311, type: 3}
    - time: 1.2333333
      value: {fileID: 21300000, guid: 6f6bd63dc2f2f7f4ca5857bed50f8bd8, type: 3}
    - time: 1.2666667
      value: {fileID: 21300000, guid: ccedd79b5fa5de140a3eeb7389f93d1b, type: 3}
    - time: 1.3
      value: {fileID: 21300000, guid: c3c7444cc1de2e94fb446e9f6af9fa79, type: 3}
    - time: 1.3333334
      value: {fileID: 21300000, guid: 5f04279eae81e2c43b22b394e21b6797, type: 3}
    - time: 1.3666667
      value: {fileID: 21300000, guid: 1328de3a4f44abf4084a17e3f501e5a8, type: 3}
    - time: 1.4
      value: {fileID: 21300000, guid: b1a5b8796b9409a47977684e2a9b27e4, type: 3}
    - time: 1.4333333
      value: {fileID: 21300000, guid: af7296619a30f1a43a82519b43f8e4c1, type: 3}
    - time: 1.4666667
      value: {fileID: 21300000, guid: 7b59d396b02a22343b13e27a19ce0d8f, type: 3}
    - time: 1.5
      value: {fileID: 21300000, guid: e49c9a93c30fe4c44b116980bd52994e, type: 3}
    - time: 1.5333333
      value: {fileID: 21300000, guid: ae351495670cb544dbf69848d9118524, type: 3}
    - time: 1.5666667
      value: {fileID: 21300000, guid: a209ad72b67c8d04d915d4da87780878, type: 3}
    - time: 1.6
      value: {fileID: 21300000, guid: 99546f51d48914949b53271a268f3a32, type: 3}
    - time: 1.6333333
      value: {fileID: 21300000, guid: 2bdd3bbc150466948a49d5859907baf2, type: 3}
    - time: 1.6666666
      value: {fileID: 21300000, guid: 74c0652e4d8738b4c8aae0357343ec2f, type: 3}
    - time: 1.7
      value: {fileID: 21300000, guid: 3bc7d0b684ce3994cb6ae5ba62d92301, type: 3}
    - time: 1.7333333
      value: {fileID: 21300000, guid: 232cfaf9f82109d41a8c826165a7ddcf, type: 3}
    - time: 1.7666667
      value: {fileID: 21300000, guid: c8e094f2a92f7b94cb573eb12be82207, type: 3}
    - time: 1.8
      value: {fileID: 21300000, guid: 09643a2d019fa3446aeaaeeb48b48edf, type: 3}
    - time: 1.8333334
      value: {fileID: 21300000, guid: a3d6e0417d73ad94a8c7419fd92027b2, type: 3}
    - time: 1.8666667
      value: {fileID: 21300000, guid: bc20072fd5916c44a995845782390e05, type: 3}
    - time: 1.9
      value: {fileID: 21300000, guid: dd1a9ed7dafd1a446b40d7dc74ec7bb9, type: 3}
    - time: 1.9333333
      value: {fileID: 21300000, guid: 868a67f60c307db4ea66865b98c64714, type: 3}
    - time: 1.9666667
      value: {fileID: 21300000, guid: a23ed6196a440cd459cc71ea25fa4433, type: 3}
    - time: 2
      value: {fileID: 21300000, guid: f96152b2ad9169a47950b59b15f2ac35, type: 3}
    - time: 2.0333333
      value: {fileID: 21300000, guid: 762a5759e9c99df41ae195627b90a45f, type: 3}
    - time: 2.0666666
      value: {fileID: 21300000, guid: 4e977a1ee50974d41a5bf210f2438929, type: 3}
    - time: 2.1
      value: {fileID: 21300000, guid: 2ee8c5a2684555f4580699ada0cfbe14, type: 3}
    - time: 2.1333334
      value: {fileID: 21300000, guid: 7644cbb5694511d49ac529163ec51a05, type: 3}
    - time: 2.1666667
      value: {fileID: 21300000, guid: a9cadab6ba0a82a49b3ea68606e927e6, type: 3}
    - time: 2.2
      value: {fileID: 21300000, guid: a4017cf0a77df0a41b875cf316c9fdc5, type: 3}
    - time: 2.2333333
      value: {fileID: 21300000, guid: ddc777dfb30875844a4ac288b30f8be6, type: 3}
    - time: 2.2666667
      value: {fileID: 21300000, guid: 01b3f2d4593d0e347a14969bee77dddb, type: 3}
    - time: 2.3
      value: {fileID: 21300000, guid: 9e85a465bdf9f2b48873fb0939bf2da7, type: 3}
    - time: 2.3333333
      value: {fileID: 21300000, guid: 736336d5ff752ac458cd66365cc431b1, type: 3}
    - time: 2.3666666
      value: {fileID: 21300000, guid: 09af16c13ccd6284f9faec7cb0b04c6c, type: 3}
    attribute: m_Sprite
    path: 
    classID: 212
    script: {fileID: 0}
  m_SampleRate: 30
  m_WrapMode: 0
  m_Bounds:
    m_Center: {x: 0, y: 0, z: 0}
    m_Extent: {x: 0, y: 0, z: 0}
  m_ClipBindingConstant:
    genericBindings:
    - serializedVersion: 2
      path: 0
      attribute: 0
      script: {fileID: 0}
      typeID: 212
      customType: 23
      isPPtrCurve: 1
    pptrCurveMapping:
    - {fileID: 21300000, guid: aa8744062dc3d144b9ec1ff6a08c1e45, type: 3}
    - {fileID: 21300000, guid: 2931b91254356204589b535eea2f6b21, type: 3}
    - {fileID: 21300000, guid: cc7ed88aecd48bf42abff66ae8156dbe, type: 3}
    - {fileID: 21300000, guid: 88678d24142995b479cb751d78812cd6, type: 3}
    - {fileID: 21300000, guid: c4a8aa1a669716340aa7484880f77298, type: 3}
    - {fileID: 21300000, guid: 38a2463f6217bb74dac082da99694afb, type: 3}
    - {fileID: 21300000, guid: 6f91338bf9afad749876192d2d6e7a03, type: 3}
    - {fileID: 21300000, guid: 7915400ec30b3434d9993faacf441421, type: 3}
    - {fileID: 21300000, guid: 5ea91a8a3d48c8241943e9aecf6256a6, type: 3}
    - {fileID: 21300000, guid: 58c7e00fbf282d14398e3b3afc851e56, type: 3}
    - {fileID: 21300000, guid: 85d021f9461b9ac498a005f8e22c9f7a, type: 3}
    - {fileID: 21300000, guid: cc3410cd81947a045a190f913c996a02, type: 3}
    - {fileID: 21300000, guid: 9a6704da5bab5af488e9c643b85e4421, type: 3}
    - {fileID: 21300000, guid: c049727434d54d7408f08c589227be94, type: 3}
    - {fileID: 21300000, guid: c17d05865133552488bb031651627d09, type: 3}
    - {fileID: 21300000, guid: 00d727b026fd61d4dbc0af2b9b920e83, type: 3}
    - {fileID: 21300000, guid: 4af25b1b5b47e64439c4bcebd483f68a, type: 3}
    - {fileID: 21300000, guid: de07b9b82ac22d64996eeec95a67771b, type: 3}
    - {fileID: 21300000, guid: de156cf2a90a8c9419de5c5d46616a8a, type: 3}
    - {fileID: 21300000, guid: f02343c0a1a72774fb61a772191620e9, type: 3}
    - {fileID: 21300000, guid: 31932a4e3c6239d489d406c879505ded, type: 3}
    - {fileID: 21300000, guid: cd93509652d85fe42ba54b3252935a80, type: 3}
    - {fileID: 21300000, guid: be2bcc4def03526488982e850431cb1f, type: 3}
    - {fileID: 21300000, guid: b8e48722d68f3ee44a2cc3e63cf144c0, type: 3}
    - {fileID: 21300000, guid: 6555b9575360de641b94580fe77807b0, type: 3}
    - {fileID: 21300000, guid: 68f2dc3423d8ef94dadebecc9dc69477, type: 3}
    - {fileID: 21300000, guid: 6e21e0a23d04e9e41a8e246827a361a3, type: 3}
    - {fileID: 21300000, guid: e6aafb0e453223548871959435acdcd2, type: 3}
    - {fileID: 21300000, guid: 17b5b81a3b741ca47a049ff2f981ba2f, type: 3}
    - {fileID: 21300000, guid: 1e3b65740d14f42498a8452c5066a2a0, type: 3}
    - {fileID: 21300000, guid: f3baa7d4973eda24dac78638a11b86a0, type: 3}
    - {fileID: 21300000, guid: 0009102ef8388694984356da67e9e2bd, type: 3}
    - {fileID: 21300000, guid: f8073f1b73ae38e46a0cf17e49176094, type: 3}
    - {fileID: 21300000, guid: 3308c8ee107f08b43ba6b39c41743444, type: 3}
    - {fileID: 21300000, guid: 9f99c390547d3b1428d340c03b1e7c5a, type: 3}
    - {fileID: 21300000, guid: a5ef0959a82443c4188883817d4460a8, type: 3}
    - {fileID: 21300000, guid: 98cfb811798a4694b82d276710bf5311, type: 3}
    - {fileID: 21300000, guid: 6f6bd63dc2f2f7f4ca5857bed50f8bd8, type: 3}
    - {fileID: 21300000, guid: ccedd79b5fa5de140a3eeb7389f93d1b, type: 3}
    - {fileID: 21300000, guid: c3c7444cc1de2e94fb446e9f6af9fa79, type: 3}
    - {fileID: 21300000, guid: 5f04279eae81e2c43b22b394e21b6797, type: 3}
    - {fileID: 21300000, guid: 1328de3a4f44abf4084a17e3f501e5a8, type: 3}
    - {fileID: 21300000, guid: b1a5b8796b9409a47977684e2a9b27e4, type: 3}
    - {fileID: 21300000, guid: af7296619a30f1a43a82519b43f8e4c1, type: 3}
    - {fileID: 21300000, guid: 7b59d396b02a22343b13e27a19ce0d8f, type: 3}
    - {fileID: 21300000, guid: e49c9a93c30fe4c44b116980bd52994e, type: 3}
    - {fileID: 21300000, guid: ae351495670cb544dbf69848d9118524, type: 3}
    - {fileID: 21300000, guid: a209ad72b67c8d04d915d4da87780878, type: 3}
    - {fileID: 21300000, guid: 99546f51d48914949b53271a268f3a32, type: 3}
    - {fileID: 21300000, guid: 2bdd3bbc150466948a49d5859907baf2, type: 3}
    - {fileID: 21300000, guid: 74c0652e4d8738b4c8aae0357343ec2f, type: 3}
    - {fileID: 21300000, guid: 3bc7d0b684ce3994cb6ae5ba62d92301, type: 3}
    - {fileID: 21300000, guid: 232cfaf9f82109d41a8c826165a7ddcf, type: 3}
    - {fileID: 21300000, guid: c8e094f2a92f7b94cb573eb12be82207, type: 3}
    - {fileID: 21300000, guid: 09643a2d019fa3446aeaaeeb48b48edf, type: 3}
    - {fileID: 21300000, guid: a3d6e0417d73ad94a8c7419fd92027b2, type: 3}
    - {fileID: 21300000, guid: bc20072fd5916c44a995845782390e05, type: 3}
    - {fileID: 21300000, guid: dd1a9ed7dafd1a446b40d7dc74ec7bb9, type: 3}
    - {fileID: 21300000, guid: 868a67f60c307db4ea66865b98c64714, type: 3}
    - {fileID: 21300000, guid: a23ed6196a440cd459cc71ea25fa4433, type: 3}
    - {fileID: 21300000, guid: f96152b2ad9169a47950b59b15f2ac35, type: 3}
    - {fileID: 21300000, guid: 762a5759e9c99df41ae195627b90a45f, type: 3}
    - {fileID: 21300000, guid: 4e977a1ee50974d41a5bf210f2438929, type: 3}
    - {fileID: 21300000, guid: 2ee8c5a2684555f4580699ada0cfbe14, type: 3}
    - {fileID: 21300000, guid: 7644cbb5694511d49ac529163ec51a05, type: 3}
    - {fileID: 21300000, guid: a9cadab6ba0a82a49b3ea68606e927e6, type: 3}
    - {fileID: 21300000, guid: a4017cf0a77df0a41b875cf316c9fdc5, type: 3}
    - {fileID: 21300000, guid: ddc777dfb30875844a4ac288b30f8be6, type: 3}
    - {fileID: 21300000, guid: 01b3f2d4593d0e347a14969bee77dddb, type: 3}
    - {fileID: 21300000, guid: 9e85a465bdf9f2b48873fb0939bf2da7, type: 3}
    - {fileID: 21300000, guid: 736336d5ff752ac458cd66365cc431b1, type: 3}
    - {fileID: 21300000, guid: 09af16c13ccd6284f9faec7cb0b04c6c, type: 3}
  m_AnimationClipSettings:
    serializedVersion: 2
    m_AdditiveReferencePoseClip: {fileID: 0}
    m_AdditiveReferencePoseTime: 0
    m_StartTime: 0
    m_StopTime: 2.3999999
    m_OrientationOffsetY: 0
    m_Level: 0
    m_CycleOffset: 0
    m_HasAdditiveReferencePose: 0
    m_LoopTime: 0
    m_LoopBlend: 0
    m_LoopBlendOrientation: 0
    m_LoopBlendPositionY: 0
    m_LoopBlendPositionXZ: 0
    m_KeepOriginalOrientation: 0
    m_KeepOriginalPositionY: 1
    m_KeepOriginalPositionXZ: 0
    m_HeightFromFeet: 0
    m_Mirror: 0
  m_EditorCurves: []
  m_EulerEditorCurves: []
  m_HasGenericRootTransform: 0
  m_HasMotionFloatCurves: 0
  m_Events: []
