%YAML 1.1
%TAG !u! tag:unity3d.com,2011:
--- !u!74 &7400000
AnimationClip:
  m_ObjectHideFlags: 0
  m_CorrespondingSourceObject: {fileID: 0}
  m_PrefabInstance: {fileID: 0}
  m_PrefabAsset: {fileID: 0}
  m_Name: camera
  serializedVersion: 6
  m_Legacy: 0
  m_Compressed: 0
  m_UseHighQualityCurve: 1
  m_RotationCurves: []
  m_CompressedRotationCurves: []
  m_EulerCurves: []
  m_PositionCurves: []
  m_ScaleCurves: []
  m_FloatCurves: []
  m_PPtrCurves:
  - curve:
    - time: 0
      value: {fileID: 21300000, guid: 4a063324b6b28cd43b201fe1925c64f9, type: 3}
    - time: 0.083333336
      value: {fileID: 21300000, guid: 06ca4581c134c944caa441b81440f3bf, type: 3}
    - time: 0.16666667
      value: {fileID: 21300000, guid: c2478f287f8be0b4097bd9f46020f249, type: 3}
    - time: 0.25
      value: {fileID: 21300000, guid: 71dd632f76470394f81b74a1b271fc69, type: 3}
    - time: 0.33333334
      value: {fileID: 21300000, guid: 8771e0116a8465d49a3880f39781275f, type: 3}
    - time: 0.41666666
      value: {fileID: 21300000, guid: 0b29cef3fe62b93418d42947f4a9b472, type: 3}
    - time: 0.5
      value: {fileID: 21300000, guid: 3d0d1595ee35bd3458fb1098272decf3, type: 3}
    - time: 0.5833333
      value: {fileID: 21300000, guid: a115e40f11342c44db504ea816f69daf, type: 3}
    - time: 0.6666667
      value: {fileID: 21300000, guid: 837151023311f124ba177a3dca4555de, type: 3}
    - time: 0.75
      value: {fileID: 21300000, guid: 8dafb4c43f195794794898fe6d93213b, type: 3}
    - time: 0.8333333
      value: {fileID: 21300000, guid: 400eb9d8f4d6258489e93c72e22cce30, type: 3}
    - time: 0.9166667
      value: {fileID: 21300000, guid: 643957e9039111f4f81eb086bcd30ad8, type: 3}
    - time: 1
      value: {fileID: 21300000, guid: 477673d266598d64a922edea23d9fc77, type: 3}
    - time: 1.0833334
      value: {fileID: 21300000, guid: c8a40ed001af26747bfbbfd3ed12088e, type: 3}
    - time: 1.1666666
      value: {fileID: 21300000, guid: 0abca1b619a52fc42b4ebf047d4d575d, type: 3}
    - time: 1.25
      value: {fileID: 21300000, guid: e45af02a6e6ca0c488425f78e0800728, type: 3}
    - time: 1.3333334
      value: {fileID: 21300000, guid: a66c14a289e612d4e888dacfd16df2eb, type: 3}
    - time: 1.4166666
      value: {fileID: 21300000, guid: 44482f402528fcb4aad7b372cdccf673, type: 3}
    - time: 1.5
      value: {fileID: 21300000, guid: 6079259d8f792a441b691bb761d38066, type: 3}
    - time: 1.5833334
      value: {fileID: 21300000, guid: 348dcf9cde6672a4698c00e2bc0c700b, type: 3}
    - time: 1.6666666
      value: {fileID: 21300000, guid: 3d4823c942d46e847852f06b13db246a, type: 3}
    - time: 1.75
      value: {fileID: 21300000, guid: fd0ed595a8b0c1345922bbd63824ebee, type: 3}
    - time: 1.8333334
      value: {fileID: 21300000, guid: 032dc0ec97845fb41bb54a9ad87785cc, type: 3}
    - time: 1.9166666
      value: {fileID: 21300000, guid: 2d70ed533cab77f43a333a8ca923d462, type: 3}
    - time: 2
      value: {fileID: 21300000, guid: 335f40eebd825bf4ba12e12317b22087, type: 3}
    - time: 2.0833333
      value: {fileID: 21300000, guid: db340638a937aad42a909d7f3222db85, type: 3}
    - time: 2.1666667
      value: {fileID: 21300000, guid: eb0fde7011df0b6458322588d277bcb8, type: 3}
    - time: 2.25
      value: {fileID: 21300000, guid: 0840d198ec9abec469b268c1662c6b36, type: 3}
    - time: 2.3333333
      value: {fileID: 21300000, guid: 568c15aa439f04441ba59e958a9dc773, type: 3}
    - time: 2.4166667
      value: {fileID: 21300000, guid: cdda065073251c9438ce56c4e6b387c3, type: 3}
    - time: 2.5
      value: {fileID: 21300000, guid: 15ac682903c08554684add61309cbc97, type: 3}
    - time: 2.5833333
      value: {fileID: 21300000, guid: ddcc4b5030cb4554b94ca2412027e6e0, type: 3}
    - time: 2.6666667
      value: {fileID: 21300000, guid: 1626abb0d12083342b4fd4d946c79c1a, type: 3}
    - time: 2.75
      value: {fileID: 21300000, guid: 16a130ee0c64100408d72a275fafcde5, type: 3}
    - time: 2.8333333
      value: {fileID: 21300000, guid: f56f891721e734b4c899ec80f739fa3d, type: 3}
    - time: 2.9166667
      value: {fileID: 21300000, guid: ffa7583acb5828343ae865dbba89419a, type: 3}
    - time: 3
      value: {fileID: 21300000, guid: ca30a332991f2fb4ab7a4d087d6e287c, type: 3}
    - time: 3.0833333
      value: {fileID: 21300000, guid: 4c9497c9666850e4dad77962cd7cbc10, type: 3}
    - time: 3.1666667
      value: {fileID: 21300000, guid: ee9bbbc42da65594a893b332654a0625, type: 3}
    - time: 3.25
      value: {fileID: 21300000, guid: 19a905378bfde1542940719230cbaffb, type: 3}
    - time: 3.3333333
      value: {fileID: 21300000, guid: 3d5b825208d46af48b4a33018871cb23, type: 3}
    - time: 3.4166667
      value: {fileID: 21300000, guid: 9044e6cce580857428ea2370f49e7950, type: 3}
    - time: 3.5
      value: {fileID: 21300000, guid: ac3075d0053f0214e9c1c297422e408e, type: 3}
    - time: 3.5833333
      value: {fileID: 21300000, guid: 6ccb32597d7ee3447a671ef15861872e, type: 3}
    - time: 3.6666667
      value: {fileID: 21300000, guid: f50f455d0ec279f4a9fc6dd774172eea, type: 3}
    - time: 3.75
      value: {fileID: 21300000, guid: 4a8feb6032513b3408194ec4e8be4d6b, type: 3}
    - time: 3.8333333
      value: {fileID: 21300000, guid: 0fedb7554933507459774df754e40b3b, type: 3}
    - time: 3.9166667
      value: {fileID: 21300000, guid: d0e5ab5075870ae4c8886aac9ba8fad3, type: 3}
    - time: 4
      value: {fileID: 21300000, guid: 25042920db304ea47a14f967e1fbc8ea, type: 3}
    - time: 4.0833335
      value: {fileID: 21300000, guid: 9cd93588e0b1ccf4381bf74775d50a18, type: 3}
    - time: 4.1666665
      value: {fileID: 21300000, guid: cec5e8eb7d8359748855b39e81eb9283, type: 3}
    - time: 4.25
      value: {fileID: 21300000, guid: b5df247de62ce934f9e51343ca4a5849, type: 3}
    - time: 4.3333335
      value: {fileID: 21300000, guid: 6b35a381f762a4440be7fe350f2d14c7, type: 3}
    - time: 4.4166665
      value: {fileID: 21300000, guid: 51447a9845519724a92d1a5d39229a21, type: 3}
    - time: 4.5
      value: {fileID: 21300000, guid: e20a9bae5782840479c2ceafd32c958b, type: 3}
    - time: 4.5833335
      value: {fileID: 21300000, guid: 977df8db1f4751e45a62fea85f17ee88, type: 3}
    - time: 4.6666665
      value: {fileID: 21300000, guid: d16cccd2cb93a064e9bc86997a8cfe0a, type: 3}
    - time: 4.75
      value: {fileID: 21300000, guid: 05af1fc2e2913434ba9ac8c709d28b7e, type: 3}
    - time: 4.8333335
      value: {fileID: 21300000, guid: db63d61bc43980b448ed779e92c528d8, type: 3}
    - time: 4.9166665
      value: {fileID: 21300000, guid: e6e80917a9c26e54585ffc97e9569eb4, type: 3}
    attribute: m_Sprite
    path: 
    classID: 212
    script: {fileID: 0}
  m_SampleRate: 12
  m_WrapMode: 0
  m_Bounds:
    m_Center: {x: 0, y: 0, z: 0}
    m_Extent: {x: 0, y: 0, z: 0}
  m_ClipBindingConstant:
    genericBindings:
    - serializedVersion: 2
      path: 0
      attribute: 0
      script: {fileID: 0}
      typeID: 212
      customType: 23
      isPPtrCurve: 1
    pptrCurveMapping:
    - {fileID: 21300000, guid: 4a063324b6b28cd43b201fe1925c64f9, type: 3}
    - {fileID: 21300000, guid: 06ca4581c134c944caa441b81440f3bf, type: 3}
    - {fileID: 21300000, guid: c2478f287f8be0b4097bd9f46020f249, type: 3}
    - {fileID: 21300000, guid: 71dd632f76470394f81b74a1b271fc69, type: 3}
    - {fileID: 21300000, guid: 8771e0116a8465d49a3880f39781275f, type: 3}
    - {fileID: 21300000, guid: 0b29cef3fe62b93418d42947f4a9b472, type: 3}
    - {fileID: 21300000, guid: 3d0d1595ee35bd3458fb1098272decf3, type: 3}
    - {fileID: 21300000, guid: a115e40f11342c44db504ea816f69daf, type: 3}
    - {fileID: 21300000, guid: 837151023311f124ba177a3dca4555de, type: 3}
    - {fileID: 21300000, guid: 8dafb4c43f195794794898fe6d93213b, type: 3}
    - {fileID: 21300000, guid: 400eb9d8f4d6258489e93c72e22cce30, type: 3}
    - {fileID: 21300000, guid: 643957e9039111f4f81eb086bcd30ad8, type: 3}
    - {fileID: 21300000, guid: 477673d266598d64a922edea23d9fc77, type: 3}
    - {fileID: 21300000, guid: c8a40ed001af26747bfbbfd3ed12088e, type: 3}
    - {fileID: 21300000, guid: 0abca1b619a52fc42b4ebf047d4d575d, type: 3}
    - {fileID: 21300000, guid: e45af02a6e6ca0c488425f78e0800728, type: 3}
    - {fileID: 21300000, guid: a66c14a289e612d4e888dacfd16df2eb, type: 3}
    - {fileID: 21300000, guid: 44482f402528fcb4aad7b372cdccf673, type: 3}
    - {fileID: 21300000, guid: 6079259d8f792a441b691bb761d38066, type: 3}
    - {fileID: 21300000, guid: 348dcf9cde6672a4698c00e2bc0c700b, type: 3}
    - {fileID: 21300000, guid: 3d4823c942d46e847852f06b13db246a, type: 3}
    - {fileID: 21300000, guid: fd0ed595a8b0c1345922bbd63824ebee, type: 3}
    - {fileID: 21300000, guid: 032dc0ec97845fb41bb54a9ad87785cc, type: 3}
    - {fileID: 21300000, guid: 2d70ed533cab77f43a333a8ca923d462, type: 3}
    - {fileID: 21300000, guid: 335f40eebd825bf4ba12e12317b22087, type: 3}
    - {fileID: 21300000, guid: db340638a937aad42a909d7f3222db85, type: 3}
    - {fileID: 21300000, guid: eb0fde7011df0b6458322588d277bcb8, type: 3}
    - {fileID: 21300000, guid: 0840d198ec9abec469b268c1662c6b36, type: 3}
    - {fileID: 21300000, guid: 568c15aa439f04441ba59e958a9dc773, type: 3}
    - {fileID: 21300000, guid: cdda065073251c9438ce56c4e6b387c3, type: 3}
    - {fileID: 21300000, guid: 15ac682903c08554684add61309cbc97, type: 3}
    - {fileID: 21300000, guid: ddcc4b5030cb4554b94ca2412027e6e0, type: 3}
    - {fileID: 21300000, guid: 1626abb0d12083342b4fd4d946c79c1a, type: 3}
    - {fileID: 21300000, guid: 16a130ee0c64100408d72a275fafcde5, type: 3}
    - {fileID: 21300000, guid: f56f891721e734b4c899ec80f739fa3d, type: 3}
    - {fileID: 21300000, guid: ffa7583acb5828343ae865dbba89419a, type: 3}
    - {fileID: 21300000, guid: ca30a332991f2fb4ab7a4d087d6e287c, type: 3}
    - {fileID: 21300000, guid: 4c9497c9666850e4dad77962cd7cbc10, type: 3}
    - {fileID: 21300000, guid: ee9bbbc42da65594a893b332654a0625, type: 3}
    - {fileID: 21300000, guid: 19a905378bfde1542940719230cbaffb, type: 3}
    - {fileID: 21300000, guid: 3d5b825208d46af48b4a33018871cb23, type: 3}
    - {fileID: 21300000, guid: 9044e6cce580857428ea2370f49e7950, type: 3}
    - {fileID: 21300000, guid: ac3075d0053f0214e9c1c297422e408e, type: 3}
    - {fileID: 21300000, guid: 6ccb32597d7ee3447a671ef15861872e, type: 3}
    - {fileID: 21300000, guid: f50f455d0ec279f4a9fc6dd774172eea, type: 3}
    - {fileID: 21300000, guid: 4a8feb6032513b3408194ec4e8be4d6b, type: 3}
    - {fileID: 21300000, guid: 0fedb7554933507459774df754e40b3b, type: 3}
    - {fileID: 21300000, guid: d0e5ab5075870ae4c8886aac9ba8fad3, type: 3}
    - {fileID: 21300000, guid: 25042920db304ea47a14f967e1fbc8ea, type: 3}
    - {fileID: 21300000, guid: 9cd93588e0b1ccf4381bf74775d50a18, type: 3}
    - {fileID: 21300000, guid: cec5e8eb7d8359748855b39e81eb9283, type: 3}
    - {fileID: 21300000, guid: b5df247de62ce934f9e51343ca4a5849, type: 3}
    - {fileID: 21300000, guid: 6b35a381f762a4440be7fe350f2d14c7, type: 3}
    - {fileID: 21300000, guid: 51447a9845519724a92d1a5d39229a21, type: 3}
    - {fileID: 21300000, guid: e20a9bae5782840479c2ceafd32c958b, type: 3}
    - {fileID: 21300000, guid: 977df8db1f4751e45a62fea85f17ee88, type: 3}
    - {fileID: 21300000, guid: d16cccd2cb93a064e9bc86997a8cfe0a, type: 3}
    - {fileID: 21300000, guid: 05af1fc2e2913434ba9ac8c709d28b7e, type: 3}
    - {fileID: 21300000, guid: db63d61bc43980b448ed779e92c528d8, type: 3}
    - {fileID: 21300000, guid: e6e80917a9c26e54585ffc97e9569eb4, type: 3}
  m_AnimationClipSettings:
    serializedVersion: 2
    m_AdditiveReferencePoseClip: {fileID: 0}
    m_AdditiveReferencePoseTime: 0
    m_StartTime: 0
    m_StopTime: 5
    m_OrientationOffsetY: 0
    m_Level: 0
    m_CycleOffset: 0
    m_HasAdditiveReferencePose: 0
    m_LoopTime: 1
    m_LoopBlend: 0
    m_LoopBlendOrientation: 0
    m_LoopBlendPositionY: 0
    m_LoopBlendPositionXZ: 0
    m_KeepOriginalOrientation: 0
    m_KeepOriginalPositionY: 1
    m_KeepOriginalPositionXZ: 0
    m_HeightFromFeet: 0
    m_Mirror: 0
  m_EditorCurves: []
  m_EulerEditorCurves: []
  m_HasGenericRootTransform: 0
  m_HasMotionFloatCurves: 0
  m_Events: []
