%YAML 1.1
%TAG !u! tag:unity3d.com,2011:
--- !u!1045 &1
EditorBuildSettings:
  m_ObjectHideFlags: 0
  serializedVersion: 2
  m_Scenes:
  - enabled: 1
    path: Assets/Scenes/movie.unity
    guid: 611c0be3d67048b48bf8c190582c929b
  - enabled: 1
    path: Assets/Scenes/A.unity
    guid: bffe65e3e2a185b49a63eec618c68dc5
  m_configObjects: {}
